Date, Close, Open, High, Low, Volume
20190122  23:00:00,24512.0,24552.0,24579.0,24475.0,29450
20190123  00:00:00,24388.0,24511.0,24530.0,24381.0,22552
20190123  01:00:00,24401.0,24388.0,24427.0,24370.0,17318
20190123  02:00:00,24340.0,24399.0,24399.0,24276.0,26240
20190123  03:00:00,24291.0,24338.0,24344.0,24239.0,21280
20190123  04:00:00,24415.0,24290.0,24415.0,24235.0,37622
20190123  05:00:00,24409.0,24415.0,24438.0,24399.0,8247
20190123  05:30:00,24424.0,24424.0,24439.0,24406.0,1349
20190123  22:30:00,24662.0,24617.0,24692.0,24606.0,23265
20190123  23:00:00,24500.0,24662.0,24685.0,24481.0,31523
20190124  00:00:00,24362.0,24499.0,24543.0,24339.0,30421
20190124  01:00:00,24453.0,24362.0,24461.0,24295.0,27248
20190124  02:00:00,24489.0,24453.0,24502.0,24396.0,20683
20190124  03:00:00,24487.0,24490.0,24539.0,24445.0,19189
20190124  04:00:00,24571.0,24488.0,24588.0,24484.0,31180
20190124  05:00:00,24570.0,24572.0,24583.0,24553.0,3721
20190124  05:30:00,24557.0,24566.0,24579.0,24557.0,730
20190124  22:30:00,24479.0,24537.0,24553.0,24444.0,27237
20190124  23:00:00,24540.0,24478.0,24613.0,24453.0,29936
20190125  00:00:00,24579.0,24539.0,24598.0,24468.0,23724
20190125  01:00:00,24481.0,24577.0,24580.0,24457.0,12888
20190125  02:00:00,24471.0,24481.0,24492.0,24405.0,18685
20190125  03:00:00,24513.0,24470.0,24528.0,24440.0,17592
20190125  04:00:00,24542.0,24512.0,24554.0,24498.0,13896
20190125  05:00:00,24478.0,24544.0,24548.0,24473.0,4702
20190125  05:30:00,24506.0,24483.0,24514.0,24480.0,855
20190125  22:30:00,24751.0,24740.0,24762.0,24693.0,19482
20190125  23:00:00,24824.0,24751.0,24849.0,24751.0,27919
20190126  00:00:00,24774.0,24825.0,24837.0,24736.0,18518
20190126  01:00:00,24707.0,24775.0,24808.0,24659.0,21063
20190126  02:00:00,24742.0,24707.0,24752.0,24688.0,11536
20190126  03:00:00,24729.0,24742.0,24761.0,24675.0,14728
20190126  04:00:00,24718.0,24730.0,24736.0,24660.0,19903
20190126  05:00:00,24711.0,24718.0,24721.0,24693.0,3448
20190126  05:30:00,24746.0,24717.0,24751.0,24716.0,799
20190128  22:30:00,24372.0,24455.0,24457.0,24326.0,30663
20190128  23:00:00,24387.0,24371.0,24460.0,24333.0,32854
20190129  00:00:00,24327.0,24386.0,24429.0,24317.0,27212
20190129  01:00:00,24349.0,24326.0,24392.0,24303.0,15013
20190129  02:00:00,24446.0,24349.0,24460.0,24334.0,15034
20190129  03:00:00,24474.0,24447.0,24502.0,24405.0,13827
20190129  04:00:00,24507.0,24474.0,24513.0,24439.0,16221
20190129  05:00:00,24492.0,24506.0,24514.0,24482.0,3128
20190129  05:30:00,24478.0,24498.0,24498.0,24477.0,764
20190129  22:30:00,24617.0,24526.0,24633.0,24504.0,19899
20190129  23:00:00,24502.0,24616.0,24657.0,24482.0,33015
20190130  00:00:00,24592.0,24503.0,24601.0,24486.0,18967
20190130  01:00:00,24590.0,24593.0,24646.0,24574.0,14435
20190130  02:00:00,24608.0,24590.0,24616.0,24561.0,9934
20190130  03:00:00,24513.0,24608.0,24609.0,24509.0,9405
20190130  04:00:00,24557.0,24512.0,24584.0,24501.0,15418
20190130  05:00:00,24578.0,24558.0,24578.0,24535.0,3166
20190130  05:30:00,24641.0,24578.0,24654.0,24552.0,2642
20190130  22:30:00,24786.0,24831.0,24850.0,24776.0,20355
20190130  23:00:00,24832.0,24785.0,24867.0,24764.0,24311
20190131  00:00:00,24909.0,24832.0,24909.0,24832.0,21240
20190131  01:00:00,24885.0,24909.0,24945.0,24874.0,13228
20190131  02:00:00,24819.0,24885.0,24893.0,24783.0,11746
20190131  03:00:00,25084.0,24820.0,25088.0,24791.0,47269
20190131  04:00:00,24997.0,25084.0,25086.0,24945.0,29965
20190131  05:00:00,24988.0,24998.0,25000.0,24950.0,6798
20190131  05:30:00,24996.0,24991.0,25017.0,24985.0,1393
20190131  22:30:00,24855.0,24875.0,24893.0,24815.0,23222
20190131  23:00:00,24913.0,24856.0,24961.0,24846.0,31585
20190201  00:00:00,25003.0,24913.0,25011.0,24902.0,22453
20190201  01:00:00,24932.0,25004.0,25009.0,24906.0,20556
20190201  02:00:00,24946.0,24932.0,24960.0,24900.0,18714
20190201  03:00:00,24940.0,24945.0,24960.0,24905.0,15353
20190201  04:00:00,24978.0,24941.0,25023.0,24895.0,28297
20190201  05:00:00,25034.0,24977.0,25053.0,24970.0,8268
20190201  05:30:00,25055.0,25033.0,25066.0,25032.0,2087
20190201  22:30:00,25020.0,25054.0,25076.0,25015.0,22468
20190201  23:00:00,25064.0,25023.0,25163.0,25023.0,38387
20190202  00:00:00,25147.0,25063.0,25150.0,25033.0,19296
20190202  01:00:00,25079.0,25147.0,25149.0,25041.0,14326
20190202  02:00:00,25043.0,25079.0,25086.0,25021.0,8931
20190202  03:00:00,24973.0,25045.0,25045.0,24957.0,14704
20190202  04:00:00,25029.0,24973.0,25045.0,24952.0,16551
20190202  05:00:00,25019.0,25030.0,25040.0,25011.0,3500
20190202  05:30:00,25021.0,25024.0,25036.0,25016.0,634
20190204  22:30:00,25007.0,25019.0,25036.0,24970.0,16725
20190204  23:00:00,24982.0,25006.0,25011.0,24943.0,23269
20190205  00:00:00,25045.0,24982.0,25050.0,24980.0,17313
20190205  01:00:00,25054.0,25046.0,25066.0,25036.0,9519
20190205  02:00:00,25117.0,25054.0,25124.0,25052.0,9332
20190205  03:00:00,25141.0,25118.0,25145.0,25114.0,9186
20190205  04:00:00,25207.0,25141.0,25213.0,25120.0,14896
20190205  05:00:00,25204.0,25207.0,25218.0,25196.0,5755
20190205  05:30:00,25190.0,25204.0,25212.0,25190.0,1371
20190205  22:30:00,25344.0,25311.0,25351.0,25292.0,20118
20190205  23:00:00,25376.0,25342.0,25379.0,25303.0,21341
20190206  00:00:00,25366.0,25377.0,25391.0,25313.0,16269
20190206  01:00:00,25277.0,25367.0,25370.0,25265.0,13858
20190206  02:00:00,25301.0,25276.0,25311.0,25254.0,11396
20190206  03:00:00,25367.0,25303.0,25373.0,25302.0,16762
20190206  04:00:00,25366.0,25368.0,25394.0,25347.0,15573
20190206  05:00:00,25343.0,25366.0,25367.0,25336.0,3543
20190206  05:30:00,25340.0,25345.0,25353.0,25340.0,477
20190206  22:30:00,25319.0,25338.0,25387.0,25314.0,20353
20190206  23:00:00,25386.0,25320.0,25403.0,25277.0,28318
20190207  00:00:00,25350.0,25386.0,25407.0,25321.0,20627
20190207  01:00:00,25369.0,25350.0,25377.0,25332.0,12284
20190207  02:00:00,25372.0,25370.0,25396.0,25367.0,8847
20190207  03:00:00,25361.0,25371.0,25374.0,25325.0,13991
20190207  04:00:00,25361.0,25360.0,25376.0,25344.0,12856
20190207  05:00:00,25351.0,25361.0,25370.0,25343.0,3069
20190207  05:30:00,25334.0,25352.0,25353.0,25334.0,861
20190207  22:30:00,25215.0,25211.0,25230.0,25176.0,27899
20190207  23:00:00,25147.0,25216.0,25303.0,25141.0,41425
20190208  00:00:00,25011.0,25147.0,25161.0,25007.0,46889
20190208  01:00:00,25006.0,25011.0,25071.0,24985.0,27590
20190208  02:00:00,25096.0,25005.0,25116.0,25001.0,24130
20190208  03:00:00,25093.0,25095.0,25132.0,25033.0,21319
20190208  04:00:00,25163.0,25092.0,25167.0,25070.0,26110
20190208  05:00:00,25156.0,25163.0,25173.0,25143.0,3514
20190208  05:30:00,25141.0,25161.0,25161.0,25133.0,716
20190208  22:30:00,24983.0,25023.0,25072.0,24973.0,24254
20190208  23:00:00,24927.0,24981.0,25007.0,24916.0,39051
20190209  00:00:00,24952.0,24927.0,24960.0,24881.0,30983
20190209  01:00:00,24977.0,24952.0,25000.0,24918.0,18308
20190209  02:00:00,25006.0,24978.0,25018.0,24973.0,13016
20190209  03:00:00,25006.0,25006.0,25036.0,24991.0,13254
20190209  04:00:00,25104.0,25006.0,25108.0,24988.0,21131
20190209  05:00:00,25103.0,25104.0,25119.0,25092.0,5491
20190209  05:30:00,25121.0,25103.0,25127.0,25098.0,890
20190211  22:30:00,25109.0,25185.0,25203.0,25091.0,24736
20190211  23:00:00,25077.0,25109.0,25137.0,25050.0,28737
20190212  00:00:00,25069.0,25079.0,25097.0,25031.0,21596
20190212  01:00:00,25087.0,25069.0,25102.0,25056.0,11106
20190212  02:00:00,25049.0,25087.0,25102.0,25024.0,14339
20190212  03:00:00,25029.0,25048.0,25058.0,25001.0,13873
20190212  04:00:00,25051.0,25029.0,25071.0,25024.0,18442
20190212  05:00:00,25040.0,25052.0,25058.0,25029.0,3414
20190212  05:30:00,25039.0,25040.0,25053.0,25034.0,833
20190212  22:30:00,25295.0,25242.0,25305.0,25232.0,20168
20190212  23:00:00,25321.0,25296.0,25333.0,25249.0,25032
20190213  00:00:00,25388.0,25321.0,25393.0,25318.0,20633
20190213  01:00:00,25375.0,25389.0,25403.0,25351.0,12838
20190213  02:00:00,25452.0,25375.0,25459.0,25372.0,14523
20190213  03:00:00,25416.0,25452.0,25452.0,25415.0,10828
20190213  04:00:00,25419.0,25416.0,25439.0,25392.0,18416
20190213  05:00:00,25427.0,25420.0,25432.0,25403.0,3612
20190213  05:30:00,25430.0,25427.0,25440.0,25417.0,749
20190213  22:30:00,25572.0,25520.0,25618.0,25515.0,22711
20190213  23:00:00,25597.0,25572.0,25626.0,25538.0,27079
20190214  00:00:00,25534.0,25598.0,25624.0,25480.0,24001
20190214  01:00:00,25509.0,25534.0,25541.0,25483.0,12785
20190214  02:00:00,25512.0,25509.0,25522.0,25498.0,6460
20190214  03:00:00,25570.0,25512.0,25577.0,25510.0,7709
20190214  04:00:00,25538.0,25570.0,25608.0,25528.0,20545
20190214  05:00:00,25508.0,25537.0,25538.0,25503.0,3544
20190214  05:30:00,25503.0,25513.0,25531.0,25503.0,725
20190214  22:30:00,25405.0,25416.0,25427.0,25324.0,34356
20190214  23:00:00,25433.0,25404.0,25500.0,25377.0,50086
20190215  00:00:00,25452.0,25433.0,25462.0,25372.0,25677
20190215  01:00:00,25528.0,25453.0,25559.0,25440.0,21816
20190215  02:00:00,25532.0,25528.0,25552.0,25503.0,11327
20190215  03:00:00,25512.0,25533.0,25557.0,25497.0,13570
20190215  04:00:00,25461.0,25513.0,25581.0,25451.0,23922
20190215  05:00:00,25450.0,25461.0,25473.0,25440.0,4239
20190215  05:30:00,25426.0,25450.0,25456.0,25426.0,1091
20190215  22:30:00,25741.0,25651.0,25757.0,25647.0,32573
20190215  23:00:00,25768.0,25742.0,25824.0,25721.0,36940
20190216  00:00:00,25818.0,25768.0,25828.0,25746.0,22536
20190216  01:00:00,25801.0,25819.0,25832.0,25786.0,12181
20190216  02:00:00,25796.0,25801.0,25813.0,25764.0,8955
20190216  03:00:00,25843.0,25795.0,25857.0,25794.0,10808
20190216  04:00:00,25897.0,25842.0,25900.0,25805.0,20935
20190216  05:00:00,25906.0,25898.0,25917.0,25891.0,4540
20190216  05:30:00,25921.0,25906.0,25927.0,25905.0,1221
20190219  22:30:00,25887.0,25831.0,25897.0,25829.0,18897
20190219  23:00:00,25848.0,25887.0,25913.0,25834.0,23686
20190220  00:00:00,25951.0,25848.0,25953.0,25847.0,21077
20190220  01:00:00,25928.0,25950.0,25953.0,25916.0,11831
20190220  02:00:00,25921.0,25928.0,25930.0,25899.0,8667
20190220  03:00:00,25971.0,25921.0,25977.0,25916.0,10861
20190220  04:00:00,25910.0,25972.0,25976.0,25898.0,18450
20190220  05:00:00,25903.0,25911.0,25915.0,25873.0,4052
20190220  05:30:00,25898.0,25904.0,25911.0,25894.0,587
20190220  22:30:00,25931.0,25910.0,25935.0,25892.0,17216
20190220  23:00:00,25914.0,25931.0,25954.0,25892.0,20590
20190221  00:00:00,25934.0,25914.0,25952.0,25906.0,15710
20190221  01:00:00,25893.0,25934.0,25940.0,25866.0,18443
20190221  02:00:00,25960.0,25892.0,25979.0,25887.0,13020
20190221  03:00:00,25974.0,25961.0,26005.0,25857.0,37986
20190221  04:00:00,25976.0,25975.0,25985.0,25945.0,20781
20190221  05:00:00,25985.0,25977.0,25993.0,25968.0,3386
20190221  05:30:00,25981.0,25989.0,25994.0,25979.0,894
20190221  22:30:00,25885.0,25917.0,25948.0,25842.0,26363
20190221  23:00:00,25854.0,25886.0,25904.0,25833.0,33691
20190222  00:00:00,25905.0,25854.0,25926.0,25836.0,22383
20190222  01:00:00,25920.0,25906.0,25923.0,25878.0,13095
20190222  02:00:00,25890.0,25921.0,25926.0,25872.0,8173
20190222  03:00:00,25797.0,25889.0,25899.0,25773.0,19164
20190222  04:00:00,25868.0,25796.0,25870.0,25773.0,23154
20190222  05:00:00,25855.0,25868.0,25878.0,25850.0,3917
20190222  05:30:00,25853.0,25857.0,25860.0,25847.0,708
20190222  22:30:00,25971.0,25951.0,25983.0,25922.0,17913
20190222  23:00:00,26009.0,25971.0,26018.0,25961.0,25704
20190223  00:00:00,26045.0,26010.0,26060.0,25998.0,20564
20190223  01:00:00,26025.0,26044.0,26064.0,26007.0,11275
20190223  02:00:00,26015.0,26026.0,26028.0,25988.0,11136
20190223  03:00:00,25943.0,26015.0,26037.0,25921.0,20161
20190223  04:00:00,26036.0,25942.0,26045.0,25932.0,22918
20190223  05:00:00,26023.0,26035.0,26037.0,26004.0,3521
20190223  05:30:00,26062.0,26023.0,26062.0,26023.0,1357
20190225  22:30:00,26209.0,26207.0,26247.0,26200.0,24598
20190225  23:00:00,26252.0,26209.0,26258.0,26168.0,26301
20190226  00:00:00,26228.0,26252.0,26258.0,26206.0,14849
20190226  01:00:00,26183.0,26228.0,26235.0,26168.0,13176
20190226  02:00:00,26173.0,26183.0,26196.0,26138.0,12707
20190226  03:00:00,26154.0,26172.0,26194.0,26153.0,9433
20190226  04:00:00,26109.0,26155.0,26164.0,26096.0,20623
20190226  05:00:00,26119.0,26110.0,26125.0,26105.0,2611
20190226  05:30:00,26106.0,26119.0,26120.0,26099.0,885
20190226  22:30:00,26022.0,26016.0,26035.0,25979.0,21680
20190226  23:00:00,25990.0,26022.0,26099.0,25990.0,29656
20190227  00:00:00,26092.0,25990.0,26135.0,25985.0,25787
20190227  01:00:00,26082.0,26093.0,26123.0,26064.0,12172
20190227  02:00:00,26098.0,26081.0,26118.0,26078.0,9395
20190227  03:00:00,26143.0,26098.0,26154.0,26086.0,12078
20190227  04:00:00,26074.0,26144.0,26170.0,26065.0,19996
20190227  05:00:00,26053.0,26074.0,26079.0,26048.0,4567
20190227  05:30:00,26036.0,26050.0,26059.0,26032.0,979
20190227  22:30:00,26016.0,26002.0,26055.0,25996.0,18469
20190227  23:00:00,25931.0,26015.0,26023.0,25892.0,43120
20190228  00:00:00,25978.0,25930.0,25988.0,25915.0,21799
20190228  01:00:00,26000.0,25979.0,26013.0,25975.0,12326
20190228  02:00:00,26022.0,25999.0,26059.0,25997.0,10973
20190228  03:00:00,26022.0,26023.0,26049.0,26007.0,10992
20190228  04:00:00,26006.0,26021.0,26039.0,25983.0,16884
20190228  05:00:00,26030.0,26005.0,26039.0,26001.0,3950
20190228  05:30:00,26050.0,26031.0,26055.0,26031.0,860
20190228  22:30:00,26031.0,26001.0,26048.0,25975.0,18788
20190228  23:00:00,25960.0,26031.0,26031.0,25934.0,34115
20190301  00:00:00,25977.0,25959.0,26002.0,25932.0,19363
20190301  01:00:00,26002.0,25978.0,26007.0,25967.0,9786
20190301  02:00:00,25982.0,26002.0,26006.0,25960.0,8745
20190301  03:00:00,25949.0,25983.0,25994.0,25933.0,11157
20190301  04:00:00,25935.0,25949.0,25979.0,25917.0,27670
20190301  05:00:00,25968.0,25934.0,25972.0,25933.0,5830
20190301  05:30:00,25949.0,25964.0,25967.0,25946.0,946
20190301  22:30:00,26144.0,26122.0,26163.0,26122.0,20407
20190301  23:00:00,26023.0,26144.0,26144.0,25993.0,37590
20190302  00:00:00,25958.0,26023.0,26030.0,25929.0,23680
20190302  01:00:00,26004.0,25958.0,26008.0,25951.0,14356
20190302  02:00:00,26006.0,26005.0,26021.0,25998.0,11548
20190302  03:00:00,26043.0,26007.0,26064.0,26001.0,10864
20190302  04:00:00,26048.0,26043.0,26089.0,26026.0,14088
20190302  05:00:00,26053.0,26049.0,26060.0,26040.0,2154
20190302  05:30:00,26066.0,26054.0,26074.0,26054.0,902
20190304  22:30:00,26106.0,26160.0,26178.0,26069.0,23176
20190304  23:00:00,26015.0,26106.0,26122.0,26009.0,29050
20190305  00:00:00,25742.0,26016.0,26026.0,25710.0,57793
20190305  01:00:00,25677.0,25743.0,25786.0,25638.0,54152
20190305  02:00:00,25759.0,25676.0,25767.0,25625.0,30867
20190305  03:00:00,25791.0,25758.0,25833.0,25743.0,28232
20190305  04:00:00,25840.0,25791.0,25847.0,25760.0,29642
20190305  05:00:00,25833.0,25840.0,25848.0,25824.0,4110
20190305  05:30:00,25826.0,25834.0,25836.0,25824.0,452
20190305  22:30:00,25774.0,25826.0,25834.0,25741.0,24258
20190305  23:00:00,25781.0,25775.0,25860.0,25754.0,33675
20190306  00:00:00,25836.0,25781.0,25889.0,25768.0,22532
20190306  01:00:00,25850.0,25835.0,25851.0,25812.0,9163
20190306  02:00:00,25831.0,25851.0,25881.0,25803.0,10847
20190306  03:00:00,25870.0,25831.0,25876.0,25828.0,8586
20190306  04:00:00,25823.0,25870.0,25891.0,25820.0,15730
20190306  05:00:00,25845.0,25825.0,25851.0,25821.0,2711
20190306  05:30:00,25819.0,25847.0,25847.0,25817.0,639
20190306  22:30:00,25805.0,25831.0,25852.0,25785.0,19992
20190306  23:00:00,25744.0,25805.0,25828.0,25715.0,30960
20190307  00:00:00,25683.0,25744.0,25783.0,25658.0,24779
20190307  01:00:00,25663.0,25683.0,25730.0,25658.0,22317
20190307  02:00:00,25719.0,25664.0,25722.0,25645.0,20495
20190307  03:00:00,25703.0,25719.0,25737.0,25685.0,14864
20190307  04:00:00,25691.0,25703.0,25729.0,25659.0,20780
20190307  05:00:00,25685.0,25692.0,25713.0,25682.0,3432
20190307  05:30:00,25688.0,25685.0,25696.0,25678.0,714
20190307  22:30:00,25467.0,25631.0,25649.0,25425.0,39222
20190307  23:00:00,25439.0,25466.0,25466.0,25358.0,47961
20190308  00:00:00,25469.0,25439.0,25499.0,25395.0,31899
20190308  01:00:00,25549.0,25469.0,25561.0,25436.0,28266
20190308  02:00:00,25522.0,25549.0,25562.0,25503.0,15535
20190308  03:00:00,25426.0,25522.0,25539.0,25415.0,20865
20190308  04:00:00,25477.0,25428.0,25491.0,25396.0,27957
20190308  05:00:00,25487.0,25478.0,25499.0,25474.0,3044
20190308  05:30:00,25480.0,25487.0,25491.0,25475.0,443
20190308  22:30:00,25316.0,25281.0,25361.0,25269.0,18464
20190308  23:00:00,25360.0,25314.0,25430.0,25290.0,22274
20190309  00:00:00,25357.0,25359.0,25413.0,25335.0,12722
20190309  01:00:00,25299.0,25358.0,25365.0,25293.0,8251
20190309  02:00:00,25347.0,25298.0,25356.0,25296.0,5116
20190309  03:00:00,25391.0,25348.0,25430.0,25320.0,6097
20190309  04:00:00,25467.0,25388.0,25484.0,25358.0,12980
20190309  05:00:00,25519.0,25467.0,25523.0,25464.0,4031
20190309  05:30:00,25542.0,25518.0,25542.0,25517.0,740
20190311  21:30:00,25406.0,25272.0,25408.0,25238.0,11046
20190311  22:00:00,25539.0,25406.0,25546.0,25399.0,12717
20190311  23:00:00,25565.0,25538.0,25587.0,25514.0,10329
20190312  00:00:00,25542.0,25566.0,25579.0,25528.0,5985
20190312  01:00:00,25623.0,25543.0,25629.0,25542.0,4866
20190312  02:00:00,25627.0,25622.0,25659.0,25608.0,4957
20190312  03:00:00,25661.0,25626.0,25675.0,25606.0,6515
20190312  04:00:00,25673.0,25661.0,25677.0,25650.0,1561
20190312  04:30:00,25686.0,25675.0,25714.0,25675.0,752
20190312  21:30:00,25631.0,25627.0,25680.0,25615.0,23670
20190312  22:00:00,25642.0,25631.0,25701.0,25591.0,24413
20190312  23:00:00,25628.0,25640.0,25641.0,25565.0,21456
20190313  00:00:00,25582.0,25628.0,25633.0,25544.0,15323
20190313  01:00:00,25600.0,25582.0,25609.0,25554.0,11400
20190313  02:00:00,25615.0,25600.0,25643.0,25598.0,11278
20190313  03:00:00,25588.0,25616.0,25622.0,25548.0,19211
20190313  04:00:00,25588.0,25589.0,25592.0,25569.0,1787
20190313  04:30:00,25619.0,25589.0,25621.0,25585.0,957
20190313  21:30:00,25717.0,25688.0,25719.0,25664.0,19432
20190313  22:00:00,25712.0,25717.0,25733.0,25692.0,20522
20190313  23:00:00,25757.0,25711.0,25795.0,25710.0,21740
20190314  00:00:00,25758.0,25757.0,25774.0,25720.0,16805
20190314  01:00:00,25766.0,25759.0,25773.0,25738.0,10053
20190314  02:00:00,25677.0,25767.0,25810.0,25598.0,30894
20190314  03:00:00,25732.0,25677.0,25745.0,25655.0,27853
20190314  04:00:00,25768.0,25731.0,25769.0,25726.0,3003
20190314  04:30:00,25782.0,25769.0,25794.0,25768.0,2069
20190314  21:30:00,25725.0,25720.0,25762.0,25716.0,15761
20190314  22:00:00,25723.0,25725.0,25728.0,25650.0,24284
20190314  23:00:00,25762.0,25723.0,25785.0,25702.0,18419
20190315  00:00:00,25745.0,25762.0,25781.0,25739.0,16135
20190315  01:00:00,25725.0,25747.0,25753.0,25712.0,10639
20190315  02:00:00,25731.0,25723.0,25741.0,25707.0,8490
20190315  03:00:00,25747.0,25732.0,25767.0,25727.0,14651
20190315  04:00:00,25742.0,25747.0,25751.0,25729.0,2137
20190315  04:30:00,25743.0,25743.0,25747.0,25733.0,703
20190315  21:30:00,25755.0,25798.0,25809.0,25745.0,22441
20190315  22:00:00,25720.0,25755.0,25764.0,25675.0,28183
20190315  23:00:00,25897.0,25721.0,25902.0,25707.0,35537
20190316  00:00:00,25936.0,25897.0,25958.0,25885.0,22065
20190316  01:00:00,25916.0,25938.0,25950.0,25907.0,13581
20190316  02:00:00,25896.0,25915.0,25919.0,25868.0,12526
20190316  03:00:00,25877.0,25896.0,25896.0,25844.0,23791
20190316  04:00:00,25895.0,25876.0,25907.0,25858.0,4217
20190316  04:30:00,25895.0,25893.0,25899.0,25882.0,894
20190318  21:30:00,25894.0,25835.0,25904.0,25832.0,17056
20190318  22:00:00,25898.0,25893.0,25915.0,25859.0,20224
20190318  23:00:00,25844.0,25899.0,25905.0,25812.0,19792
20190319  00:00:00,25890.0,25844.0,25895.0,25833.0,13820
20190319  01:00:00,25911.0,25889.0,25915.0,25878.0,8615
20190319  02:00:00,25913.0,25912.0,25930.0,25889.0,8967
20190319  03:00:00,25943.0,25914.0,25956.0,25889.0,13996
20190319  04:00:00,25958.0,25942.0,25973.0,25941.0,3065
20190319  04:30:00,25958.0,25958.0,25966.0,25951.0,1035
20190319  21:30:00,26026.0,26056.0,26083.0,26023.0,19503
20190319  22:00:00,26031.0,26027.0,26095.0,26026.0,21757
20190319  23:00:00,26124.0,26032.0,26126.0,26032.0,16829
20190320  00:00:00,26040.0,26124.0,26142.0,25950.0,32947
20190320  01:00:00,25992.0,26040.0,26052.0,25985.0,18620
20190320  02:00:00,25968.0,25992.0,26018.0,25944.0,18062
20190320  03:00:00,25934.0,25969.0,25984.0,25844.0,32875
20190320  04:00:00,25901.0,25935.0,25937.0,25891.0,3373
20190320  04:30:00,25908.0,25903.0,25912.0,25895.0,636
20190320  21:30:00,25789.0,25888.0,25893.0,25778.0,23765
20190320  22:00:00,25846.0,25789.0,25861.0,25784.0,24455
20190320  23:00:00,25746.0,25847.0,25875.0,25735.0,21508
20190321  00:00:00,25749.0,25746.0,25800.0,25697.0,25079
20190321  01:00:00,25775.0,25748.0,25775.0,25737.0,10637
20190321  02:00:00,25925.0,25773.0,25960.0,25773.0,47820
20190321  03:00:00,25777.0,25925.0,25941.0,25763.0,31806
20190321  04:00:00,25719.0,25777.0,25778.0,25711.0,8292
20190321  04:30:00,25698.0,25719.0,25728.0,25693.0,1360
20190321  21:30:00,25818.0,25673.0,25843.0,25671.0,23565
20190321  22:00:00,25891.0,25819.0,25893.0,25815.0,31732
20190321  23:00:00,26002.0,25892.0,26008.0,25891.0,33526
20190322  00:00:00,25924.0,26002.0,26007.0,25895.0,23766
20190322  01:00:00,25964.0,25924.0,25984.0,25924.0,18125
20190322  02:00:00,26000.0,25964.0,26036.0,25964.0,19317
20190322  03:00:00,25995.0,26000.0,26041.0,25979.0,24828
20190322  04:00:00,26009.0,25996.0,26011.0,25976.0,3834
20190322  04:30:00,25984.0,26006.0,26007.0,25979.0,1111
20190322  21:30:00,25719.0,25826.0,25907.0,25690.0,31160
20190322  22:00:00,25695.0,25719.0,25826.0,25690.0,39114
20190322  23:00:00,25564.0,25694.0,25735.0,25561.0,41751
20190323  00:00:00,25607.0,25564.0,25619.0,25532.0,32762
20190323  01:00:00,25579.0,25606.0,25649.0,25565.0,21214
20190323  02:00:00,25719.0,25580.0,25738.0,25573.0,25625
20190323  03:00:00,25534.0,25718.0,25745.0,25526.0,35650
20190323  04:00:00,25569.0,25534.0,25598.0,25533.0,5706
20190323  04:30:00,25539.0,25564.0,25567.0,25532.0,1407
20190325  21:30:00,25411.0,25503.0,25599.0,25408.0,29480
20190325  22:00:00,25560.0,25411.0,25579.0,25392.0,36708
20190325  23:00:00,25527.0,25560.0,25628.0,25525.0,26959
20190326  00:00:00,25524.0,25527.0,25577.0,25451.0,21404
20190326  01:00:00,25456.0,25524.0,25556.0,25439.0,19352
20190326  02:00:00,25498.0,25457.0,25505.0,25405.0,16513
20190326  03:00:00,25541.0,25497.0,25565.0,25482.0,23790
20190326  04:00:00,25575.0,25540.0,25577.0,25533.0,3622
20190326  04:30:00,25579.0,25577.0,25587.0,25570.0,993
20190326  21:30:00,25789.0,25739.0,25807.0,25739.0,19423
20190326  22:00:00,25810.0,25788.0,25819.0,25731.0,25290
20190326  23:00:00,25707.0,25810.0,25817.0,25680.0,22512
20190327  00:00:00,25655.0,25708.0,25725.0,25615.0,21107
20190327  01:00:00,25588.0,25656.0,25672.0,25582.0,13767
20190327  02:00:00,25626.0,25588.0,25631.0,25563.0,15341
20190327  03:00:00,25675.0,25626.0,25681.0,25576.0,21039
20190327  04:00:00,25673.0,25675.0,25681.0,25654.0,2918
20190327  04:30:00,25669.0,25670.0,25671.0,25616.0,2312
20190327  21:30:00,25668.0,25695.0,25778.0,25653.0,25016
20190327  22:00:00,25625.0,25670.0,25752.0,25592.0,34210
20190327  23:00:00,25479.0,25626.0,25646.0,25438.0,40309
20190328  00:00:00,25540.0,25479.0,25565.0,25461.0,24029
20190328  01:00:00,25610.0,25540.0,25630.0,25509.0,20299
20190328  02:00:00,25634.0,25611.0,25669.0,25603.0,20401
20190328  03:00:00,25642.0,25634.0,25695.0,25607.0,21898
20190328  04:00:00,25654.0,25642.0,25664.0,25628.0,3379
20190328  04:30:00,25626.0,25654.0,25657.0,25625.0,830
20190328  21:30:00,25706.0,25723.0,25759.0,25662.0,21180
20190328  22:00:00,25682.0,25707.0,25744.0,25675.0,23837
20190328  23:00:00,25635.0,25683.0,25694.0,25595.0,26249
20190329  00:00:00,25655.0,25636.0,25661.0,25582.0,16001
20190329  01:00:00,25693.0,25655.0,25694.0,25650.0,11193
20190329  02:00:00,25694.0,25693.0,25700.0,25665.0,8784
20190329  03:00:00,25728.0,25694.0,25739.0,25682.0,15632
20190329  04:00:00,25734.0,25729.0,25741.0,25712.0,2395
20190329  04:30:00,25745.0,25734.0,25747.0,25734.0,696
20190329  21:30:00,25836.0,25884.0,25897.0,25798.0,20548
20190329  22:00:00,25817.0,25837.0,25873.0,25779.0,27886
20190329  23:00:00,25860.0,25817.0,25889.0,25817.0,20527
20190330  00:00:00,25881.0,25861.0,25890.0,25816.0,16096
20190330  01:00:00,25871.0,25881.0,25887.0,25842.0,9885
20190330  02:00:00,25914.0,25870.0,25921.0,25857.0,14862
20190330  03:00:00,25932.0,25914.0,25954.0,25866.0,31176
20190330  04:00:00,25942.0,25932.0,25944.0,25913.0,5004
20190330  04:30:00,25947.0,25944.0,25961.0,25943.0,837
20190401  21:30:00,26103.0,26145.0,26153.0,26076.0,20325
20190401  22:00:00,26169.0,26105.0,26177.0,26105.0,25744
20190401  23:00:00,26190.0,26170.0,26203.0,26154.0,17168
20190402  00:00:00,26202.0,26190.0,26203.0,26160.0,10274
20190402  01:00:00,26210.0,26202.0,26211.0,26180.0,8792
20190402  02:00:00,26232.0,26209.0,26249.0,26205.0,10901
20190402  03:00:00,26258.0,26232.0,26285.0,26199.0,15588
20190402  04:00:00,26256.0,26257.0,26261.0,26226.0,3693
20190402  04:30:00,26243.0,26250.0,26259.0,26239.0,1072
20190402  21:30:00,26213.0,26216.0,26225.0,26163.0,21685
20190402  22:00:00,26164.0,26212.0,26212.0,26141.0,22648
20190402  23:00:00,26174.0,26164.0,26186.0,26123.0,20554
20190403  00:00:00,26154.0,26176.0,26190.0,26136.0,11665
20190403  01:00:00,26156.0,26154.0,26179.0,26146.0,9281
20190403  02:00:00,26186.0,26157.0,26186.0,26148.0,8134
20190403  03:00:00,26181.0,26186.0,26203.0,26174.0,12724
20190403  04:00:00,26147.0,26181.0,26183.0,26147.0,3208
20190403  04:30:00,26140.0,26151.0,26151.0,26138.0,645
20190403  21:30:00,26192.0,26273.0,26279.0,26178.0,19349
20190403  22:00:00,26232.0,26191.0,26240.0,26150.0,27471
20190403  23:00:00,26272.0,26233.0,26292.0,26228.0,19643
20190404  00:00:00,26245.0,26271.0,26280.0,26233.0,11323
20190404  01:00:00,26181.0,26245.0,26261.0,26173.0,14435
