Date, Close, Open, High, Low, Volume
20190122  22:30:00,24553.0,24537.0,24569.0,24517.0,22074
20190122  23:00:00,24512.0,24552.0,24579.0,24475.0,29450
20190123  00:00:00,24388.0,24511.0,24530.0,24381.0,22552
20190123  01:00:00,24401.0,24388.0,24427.0,24370.0,17318
20190123  02:00:00,24340.0,24399.0,24399.0,24276.0,26240
20190123  03:00:00,24291.0,24338.0,24344.0,24239.0,21280
20190123  04:00:00,24415.0,24290.0,24415.0,24235.0,37622
20190123  05:00:00,24409.0,24415.0,24438.0,24399.0,8247
20190123  05:30:00,24424.0,24424.0,24439.0,24406.0,1349
20190123  22:30:00,24662.0,24617.0,24692.0,24606.0,23265
20190123  23:00:00,24500.0,24662.0,24685.0,24481.0,31523
20190124  00:00:00,24362.0,24499.0,24543.0,24339.0,30421
20190124  01:00:00,24453.0,24362.0,24461.0,24295.0,27248
20190124  02:00:00,24489.0,24453.0,24502.0,24396.0,20683
20190124  03:00:00,24487.0,24490.0,24539.0,24445.0,19189
20190124  04:00:00,24571.0,24488.0,24588.0,24484.0,31180
20190124  05:00:00,24570.0,24572.0,24583.0,24553.0,3721
20190124  05:30:00,24557.0,24566.0,24579.0,24557.0,730
20190124  22:30:00,24479.0,24537.0,24553.0,24444.0,27237
20190124  23:00:00,24540.0,24478.0,24613.0,24453.0,29936
20190125  00:00:00,24579.0,24539.0,24598.0,24468.0,23724
20190125  01:00:00,24481.0,24577.0,24580.0,24457.0,12888
20190125  02:00:00,24471.0,24481.0,24492.0,24405.0,18685
20190125  03:00:00,24513.0,24470.0,24528.0,24440.0,17592
20190125  04:00:00,24542.0,24512.0,24554.0,24498.0,13896
20190125  05:00:00,24478.0,24544.0,24548.0,24473.0,4702
20190125  05:30:00,24506.0,24483.0,24514.0,24480.0,855
20190125  22:30:00,24751.0,24740.0,24762.0,24693.0,19482
20190125  23:00:00,24824.0,24751.0,24849.0,24751.0,27919
20190126  00:00:00,24774.0,24825.0,24837.0,24736.0,18518
20190126  01:00:00,24707.0,24775.0,24808.0,24659.0,21063
20190126  02:00:00,24742.0,24707.0,24752.0,24688.0,11536
20190126  03:00:00,24729.0,24742.0,24761.0,24675.0,14728
20190126  04:00:00,24718.0,24730.0,24736.0,24660.0,19903
20190126  05:00:00,24711.0,24718.0,24721.0,24693.0,3448
20190126  05:30:00,24746.0,24717.0,24751.0,24716.0,799
20190128  22:30:00,24372.0,24455.0,24457.0,24326.0,30663
20190128  23:00:00,24387.0,24371.0,24460.0,24333.0,32854
20190129  00:00:00,24327.0,24386.0,24429.0,24317.0,27212
20190129  01:00:00,24349.0,24326.0,24392.0,24303.0,15013
20190129  02:00:00,24446.0,24349.0,24460.0,24334.0,15034
20190129  03:00:00,24474.0,24447.0,24502.0,24405.0,13827
20190129  04:00:00,24507.0,24474.0,24513.0,24439.0,16221
20190129  05:00:00,24492.0,24506.0,24514.0,24482.0,3128
20190129  05:30:00,24478.0,24498.0,24498.0,24477.0,764
20190129  22:30:00,24617.0,24526.0,24633.0,24504.0,19899
20190129  23:00:00,24502.0,24616.0,24657.0,24482.0,33015
20190130  00:00:00,24592.0,24503.0,24601.0,24486.0,18967
20190130  01:00:00,24590.0,24593.0,24646.0,24574.0,14435
20190130  02:00:00,24608.0,24590.0,24616.0,24561.0,9934
20190130  03:00:00,24513.0,24608.0,24609.0,24509.0,9405
20190130  04:00:00,24557.0,24512.0,24584.0,24501.0,15418
20190130  05:00:00,24578.0,24558.0,24578.0,24535.0,3166
20190130  05:30:00,24641.0,24578.0,24654.0,24552.0,2642
20190130  22:30:00,24786.0,24831.0,24850.0,24776.0,20355
20190130  23:00:00,24832.0,24785.0,24867.0,24764.0,24311
20190131  00:00:00,24909.0,24832.0,24909.0,24832.0,21240
20190131  01:00:00,24885.0,24909.0,24945.0,24874.0,13228
20190131  02:00:00,24819.0,24885.0,24893.0,24783.0,11746
20190131  03:00:00,25084.0,24820.0,25088.0,24791.0,47269
20190131  04:00:00,24997.0,25084.0,25086.0,24945.0,29965
20190131  05:00:00,24988.0,24998.0,25000.0,24950.0,6798
20190131  05:30:00,24996.0,24991.0,25017.0,24985.0,1393
20190131  22:30:00,24855.0,24875.0,24893.0,24815.0,23222
20190131  23:00:00,24913.0,24856.0,24961.0,24846.0,31585
20190201  00:00:00,25003.0,24913.0,25011.0,24902.0,22453
20190201  01:00:00,24932.0,25004.0,25009.0,24906.0,20556
20190201  02:00:00,24946.0,24932.0,24960.0,24900.0,18714
20190201  03:00:00,24940.0,24945.0,24960.0,24905.0,15353
20190201  04:00:00,24978.0,24941.0,25023.0,24895.0,28297
20190201  05:00:00,25034.0,24977.0,25053.0,24970.0,8268
20190201  05:30:00,25055.0,25033.0,25066.0,25032.0,2087
20190201  22:30:00,25020.0,25054.0,25076.0,25015.0,22468
20190201  23:00:00,25064.0,25023.0,25163.0,25023.0,38387
20190202  00:00:00,25147.0,25063.0,25150.0,25033.0,19296
20190202  01:00:00,25079.0,25147.0,25149.0,25041.0,14326
20190202  02:00:00,25043.0,25079.0,25086.0,25021.0,8931
20190202  03:00:00,24973.0,25045.0,25045.0,24957.0,14704
20190202  04:00:00,25029.0,24973.0,25045.0,24952.0,16551
20190202  05:00:00,25019.0,25030.0,25040.0,25011.0,3500
20190202  05:30:00,25021.0,25024.0,25036.0,25016.0,634
20190204  22:30:00,25007.0,25019.0,25036.0,24970.0,16725
20190204  23:00:00,24982.0,25006.0,25011.0,24943.0,23269
20190205  00:00:00,25045.0,24982.0,25050.0,24980.0,17313
20190205  01:00:00,25054.0,25046.0,25066.0,25036.0,9519
20190205  02:00:00,25117.0,25054.0,25124.0,25052.0,9332
20190205  03:00:00,25141.0,25118.0,25145.0,25114.0,9186
20190205  04:00:00,25207.0,25141.0,25213.0,25120.0,14896
20190205  05:00:00,25204.0,25207.0,25218.0,25196.0,5755
20190205  05:30:00,25190.0,25204.0,25212.0,25190.0,1371
20190205  22:30:00,25344.0,25311.0,25351.0,25292.0,20118
20190205  23:00:00,25376.0,25342.0,25379.0,25303.0,21341
20190206  00:00:00,25366.0,25377.0,25391.0,25313.0,16269
20190206  01:00:00,25277.0,25367.0,25370.0,25265.0,13858
20190206  02:00:00,25301.0,25276.0,25311.0,25254.0,11396
20190206  03:00:00,25367.0,25303.0,25373.0,25302.0,16762
20190206  04:00:00,25366.0,25368.0,25394.0,25347.0,15573
20190206  05:00:00,25343.0,25366.0,25367.0,25336.0,3543
20190206  05:30:00,25340.0,25345.0,25353.0,25340.0,477
20190206  22:30:00,25319.0,25338.0,25387.0,25314.0,20353
20190206  23:00:00,25386.0,25320.0,25403.0,25277.0,28318
20190207  00:00:00,25350.0,25386.0,25407.0,25321.0,20627
20190207  01:00:00,25369.0,25350.0,25377.0,25332.0,12284
20190207  02:00:00,25372.0,25370.0,25396.0,25367.0,8847
20190207  03:00:00,25361.0,25371.0,25374.0,25325.0,13991
20190207  04:00:00,25361.0,25360.0,25376.0,25344.0,12856
20190207  05:00:00,25351.0,25361.0,25370.0,25343.0,3069
20190207  05:30:00,25334.0,25352.0,25353.0,25334.0,861
20190207  22:30:00,25215.0,25211.0,25230.0,25176.0,27899
20190207  23:00:00,25147.0,25216.0,25303.0,25141.0,41425
20190208  00:00:00,25011.0,25147.0,25161.0,25007.0,46889
20190208  01:00:00,25006.0,25011.0,25071.0,24985.0,27590
20190208  02:00:00,25096.0,25005.0,25116.0,25001.0,24130
20190208  03:00:00,25093.0,25095.0,25132.0,25033.0,21319
20190208  04:00:00,25163.0,25092.0,25167.0,25070.0,26110
20190208  05:00:00,25156.0,25163.0,25173.0,25143.0,3514
20190208  05:30:00,25141.0,25161.0,25161.0,25133.0,716
20190208  22:30:00,24983.0,25023.0,25072.0,24973.0,24254
20190208  23:00:00,24927.0,24981.0,25007.0,24916.0,39051
20190209  00:00:00,24952.0,24927.0,24960.0,24881.0,30983
20190209  01:00:00,24977.0,24952.0,25000.0,24918.0,18308
20190209  02:00:00,25006.0,24978.0,25018.0,24973.0,13016
20190209  03:00:00,25006.0,25006.0,25036.0,24991.0,13254
20190209  04:00:00,25104.0,25006.0,25108.0,24988.0,21131
20190209  05:00:00,25103.0,25104.0,25119.0,25092.0,5491
20190209  05:30:00,25121.0,25103.0,25127.0,25098.0,890
20190211  22:30:00,25109.0,25185.0,25203.0,25091.0,24736
20190211  23:00:00,25077.0,25109.0,25137.0,25050.0,28737
20190212  00:00:00,25069.0,25079.0,25097.0,25031.0,21596
20190212  01:00:00,25087.0,25069.0,25102.0,25056.0,11106
20190212  02:00:00,25049.0,25087.0,25102.0,25024.0,14339
20190212  03:00:00,25029.0,25048.0,25058.0,25001.0,13873
20190212  04:00:00,25051.0,25029.0,25071.0,25024.0,18442
20190212  05:00:00,25040.0,25052.0,25058.0,25029.0,3414
20190212  05:30:00,25039.0,25040.0,25053.0,25034.0,833
20190212  22:30:00,25295.0,25242.0,25305.0,25232.0,20168
20190212  23:00:00,25321.0,25296.0,25333.0,25249.0,25032
20190213  00:00:00,25388.0,25321.0,25393.0,25318.0,20633
20190213  01:00:00,25375.0,25389.0,25403.0,25351.0,12838
20190213  02:00:00,25452.0,25375.0,25459.0,25372.0,14523
20190213  03:00:00,25416.0,25452.0,25452.0,25415.0,10828
20190213  04:00:00,25419.0,25416.0,25439.0,25392.0,18416
20190213  05:00:00,25427.0,25420.0,25432.0,25403.0,3612
20190213  05:30:00,25430.0,25427.0,25440.0,25417.0,749
20190213  22:30:00,25572.0,25520.0,25618.0,25515.0,22711
20190213  23:00:00,25597.0,25572.0,25626.0,25538.0,27079
20190214  00:00:00,25534.0,25598.0,25624.0,25480.0,24001
20190214  01:00:00,25509.0,25534.0,25541.0,25483.0,12785
20190214  02:00:00,25512.0,25509.0,25522.0,25498.0,6460
20190214  03:00:00,25570.0,25512.0,25577.0,25510.0,7709
20190214  04:00:00,25538.0,25570.0,25608.0,25528.0,20545
20190214  05:00:00,25508.0,25537.0,25538.0,25503.0,3544
20190214  05:30:00,25503.0,25513.0,25531.0,25503.0,725
20190214  22:30:00,25405.0,25416.0,25427.0,25324.0,34356
20190214  23:00:00,25433.0,25404.0,25500.0,25377.0,50086
20190215  00:00:00,25452.0,25433.0,25462.0,25372.0,25677
20190215  01:00:00,25528.0,25453.0,25559.0,25440.0,21816
20190215  02:00:00,25532.0,25528.0,25552.0,25503.0,11327
20190215  03:00:00,25512.0,25533.0,25557.0,25497.0,13570
20190215  04:00:00,25461.0,25513.0,25581.0,25451.0,23922
20190215  05:00:00,25450.0,25461.0,25473.0,25440.0,4239
20190215  05:30:00,25426.0,25450.0,25456.0,25426.0,1091
20190215  22:30:00,25741.0,25651.0,25757.0,25647.0,32573
20190215  23:00:00,25768.0,25742.0,25824.0,25721.0,36940
20190216  00:00:00,25818.0,25768.0,25828.0,25746.0,22536
20190216  01:00:00,25801.0,25819.0,25832.0,25786.0,12181
20190216  02:00:00,25796.0,25801.0,25813.0,25764.0,8955
20190216  03:00:00,25843.0,25795.0,25857.0,25794.0,10808
20190216  04:00:00,25897.0,25842.0,25900.0,25805.0,20935
20190216  05:00:00,25906.0,25898.0,25917.0,25891.0,4540
20190216  05:30:00,25921.0,25906.0,25927.0,25905.0,1221
20190219  22:30:00,25887.0,25831.0,25897.0,25829.0,18897
20190219  23:00:00,25848.0,25887.0,25913.0,25834.0,23686
20190220  00:00:00,25951.0,25848.0,25953.0,25847.0,21077
20190220  01:00:00,25928.0,25950.0,25953.0,25916.0,11831
20190220  02:00:00,25921.0,25928.0,25930.0,25899.0,8667
20190220  03:00:00,25971.0,25921.0,25977.0,25916.0,10861
20190220  04:00:00,25910.0,25972.0,25976.0,25898.0,18450
20190220  05:00:00,25903.0,25911.0,25915.0,25873.0,4052
20190220  05:30:00,25898.0,25904.0,25911.0,25894.0,587
20190220  22:30:00,25931.0,25910.0,25935.0,25892.0,17216
20190220  23:00:00,25914.0,25931.0,25954.0,25892.0,20590
20190221  00:00:00,25934.0,25914.0,25952.0,25906.0,15710
20190221  01:00:00,25893.0,25934.0,25940.0,25866.0,18443
20190221  02:00:00,25960.0,25892.0,25979.0,25887.0,13020
20190221  03:00:00,25974.0,25961.0,26005.0,25857.0,37986
20190221  04:00:00,25976.0,25975.0,25985.0,25945.0,20781
20190221  05:00:00,25985.0,25977.0,25993.0,25968.0,3386
20190221  05:30:00,25981.0,25989.0,25994.0,25979.0,894
20190221  22:30:00,25885.0,25917.0,25948.0,25842.0,26363
20190221  23:00:00,25854.0,25886.0,25904.0,25833.0,33691
20190222  00:00:00,25905.0,25854.0,25926.0,25836.0,22383
20190222  01:00:00,25920.0,25906.0,25923.0,25878.0,13095
20190222  02:00:00,25890.0,25921.0,25926.0,25872.0,8173
20190222  03:00:00,25797.0,25889.0,25899.0,25773.0,19164
20190222  04:00:00,25868.0,25796.0,25870.0,25773.0,23154
20190222  05:00:00,25855.0,25868.0,25878.0,25850.0,3917
20190222  05:30:00,25853.0,25857.0,25860.0,25847.0,708
20190222  22:30:00,25971.0,25951.0,25983.0,25922.0,17913
20190222  23:00:00,26009.0,25971.0,26018.0,25961.0,25704
20190223  00:00:00,26045.0,26010.0,26060.0,25998.0,20564
20190223  01:00:00,26025.0,26044.0,26064.0,26007.0,11275
20190223  02:00:00,26015.0,26026.0,26028.0,25988.0,11136
20190223  03:00:00,25943.0,26015.0,26037.0,25921.0,20161
20190223  04:00:00,26036.0,25942.0,26045.0,25932.0,22918
20190223  05:00:00,26023.0,26035.0,26037.0,26004.0,3521
20190223  05:30:00,26062.0,26023.0,26062.0,26023.0,1357
20190225  22:30:00,26209.0,26207.0,26247.0,26200.0,24598
20190225  23:00:00,26252.0,26209.0,26258.0,26168.0,26301
20190226  00:00:00,26228.0,26252.0,26258.0,26206.0,14849
20190226  01:00:00,26183.0,26228.0,26235.0,26168.0,13176
20190226  02:00:00,26173.0,26183.0,26196.0,26138.0,12707
20190226  03:00:00,26154.0,26172.0,26194.0,26153.0,9433
20190226  04:00:00,26109.0,26155.0,26164.0,26096.0,20623
20190226  05:00:00,26119.0,26110.0,26125.0,26105.0,2611
20190226  05:30:00,26106.0,26119.0,26120.0,26099.0,885
20190226  22:30:00,26022.0,26016.0,26035.0,25979.0,21680
20190226  23:00:00,25990.0,26022.0,26099.0,25990.0,29656
20190227  00:00:00,26092.0,25990.0,26135.0,25985.0,25787
20190227  01:00:00,26082.0,26093.0,26123.0,26064.0,12172
20190227  02:00:00,26098.0,26081.0,26118.0,26078.0,9395
20190227  03:00:00,26143.0,26098.0,26154.0,26086.0,12078
20190227  04:00:00,26074.0,26144.0,26170.0,26065.0,19996
20190227  05:00:00,26053.0,26074.0,26079.0,26048.0,4567
20190227  05:30:00,26036.0,26050.0,26059.0,26032.0,979
20190227  22:30:00,26016.0,26002.0,26055.0,25996.0,18469
20190227  23:00:00,25931.0,26015.0,26023.0,25892.0,43120
20190228  00:00:00,25978.0,25930.0,25988.0,25915.0,21799
20190228  01:00:00,26000.0,25979.0,26013.0,25975.0,12326
20190228  02:00:00,26022.0,25999.0,26059.0,25997.0,10973
20190228  03:00:00,26022.0,26023.0,26049.0,26007.0,10992
20190228  04:00:00,26006.0,26021.0,26039.0,25983.0,16884
20190228  05:00:00,26030.0,26005.0,26039.0,26001.0,3950
20190228  05:30:00,26050.0,26031.0,26055.0,26031.0,860
20190228  22:30:00,26031.0,26001.0,26048.0,25975.0,18788
20190228  23:00:00,25960.0,26031.0,26031.0,25934.0,34115
20190301  00:00:00,25977.0,25959.0,26002.0,25932.0,19363
20190301  01:00:00,26002.0,25978.0,26007.0,25967.0,9786
20190301  02:00:00,25982.0,26002.0,26006.0,25960.0,8745
20190301  03:00:00,25949.0,25983.0,25994.0,25933.0,11157
20190301  04:00:00,25935.0,25949.0,25979.0,25917.0,27670
20190301  05:00:00,25968.0,25934.0,25972.0,25933.0,5830
20190301  05:30:00,25949.0,25964.0,25967.0,25946.0,946
20190301  22:30:00,26144.0,26122.0,26163.0,26122.0,20407
20190301  23:00:00,26023.0,26144.0,26144.0,25993.0,37590
20190302  00:00:00,25958.0,26023.0,26030.0,25929.0,23680
20190302  01:00:00,26004.0,25958.0,26008.0,25951.0,14356
20190302  02:00:00,26006.0,26005.0,26021.0,25998.0,11548
20190302  03:00:00,26043.0,26007.0,26064.0,26001.0,10864
20190302  04:00:00,26048.0,26043.0,26089.0,26026.0,14088
20190302  05:00:00,26053.0,26049.0,26060.0,26040.0,2154
20190302  05:30:00,26066.0,26054.0,26074.0,26054.0,902
20190304  22:30:00,26106.0,26160.0,26178.0,26069.0,23176
20190304  23:00:00,26015.0,26106.0,26122.0,26009.0,29050
20190305  00:00:00,25742.0,26016.0,26026.0,25710.0,57793
20190305  01:00:00,25677.0,25743.0,25786.0,25638.0,54152
20190305  02:00:00,25759.0,25676.0,25767.0,25625.0,30867
20190305  03:00:00,25791.0,25758.0,25833.0,25743.0,28232
20190305  04:00:00,25840.0,25791.0,25847.0,25760.0,29642
20190305  05:00:00,25833.0,25840.0,25848.0,25824.0,4110
20190305  05:30:00,25826.0,25834.0,25836.0,25824.0,452
20190305  22:30:00,25774.0,25826.0,25834.0,25741.0,24258
20190305  23:00:00,25781.0,25775.0,25860.0,25754.0,33675
20190306  00:00:00,25836.0,25781.0,25889.0,25768.0,22532
20190306  01:00:00,25850.0,25835.0,25851.0,25812.0,9163
20190306  02:00:00,25831.0,25851.0,25881.0,25803.0,10847
20190306  03:00:00,25870.0,25831.0,25876.0,25828.0,8586
20190306  04:00:00,25823.0,25870.0,25891.0,25820.0,15730
20190306  05:00:00,25845.0,25825.0,25851.0,25821.0,2711
20190306  05:30:00,25819.0,25847.0,25847.0,25817.0,639
20190306  22:30:00,25805.0,25831.0,25852.0,25785.0,19992
20190306  23:00:00,25744.0,25805.0,25828.0,25715.0,30960
20190307  00:00:00,25683.0,25744.0,25783.0,25658.0,24779
20190307  01:00:00,25663.0,25683.0,25730.0,25658.0,22317
20190307  02:00:00,25719.0,25664.0,25722.0,25645.0,20495
20190307  03:00:00,25703.0,25719.0,25737.0,25685.0,14864
20190307  04:00:00,25691.0,25703.0,25729.0,25659.0,20780
20190307  05:00:00,25685.0,25692.0,25713.0,25682.0,3432
20190307  05:30:00,25688.0,25685.0,25696.0,25678.0,714
20190307  22:30:00,25467.0,25631.0,25649.0,25425.0,39222
20190307  23:00:00,25439.0,25466.0,25466.0,25358.0,47961
20190308  00:00:00,25469.0,25439.0,25499.0,25395.0,31899
20190308  01:00:00,25549.0,25469.0,25561.0,25436.0,28266
20190308  02:00:00,25522.0,25549.0,25562.0,25503.0,15535
20190308  03:00:00,25426.0,25522.0,25539.0,25415.0,20865
20190308  04:00:00,25477.0,25428.0,25491.0,25396.0,27957
20190308  05:00:00,25487.0,25478.0,25499.0,25474.0,3044
20190308  05:30:00,25480.0,25487.0,25491.0,25475.0,443
20190308  22:30:00,25316.0,25281.0,25361.0,25269.0,18464
20190308  23:00:00,25360.0,25314.0,25430.0,25290.0,22274
20190309  00:00:00,25357.0,25359.0,25413.0,25335.0,12722
20190309  01:00:00,25299.0,25358.0,25365.0,25293.0,8251
20190309  02:00:00,25347.0,25298.0,25356.0,25296.0,5116
20190309  03:00:00,25391.0,25348.0,25430.0,25320.0,6097
20190309  04:00:00,25467.0,25388.0,25484.0,25358.0,12980
20190309  05:00:00,25519.0,25467.0,25523.0,25464.0,4031
20190309  05:30:00,25542.0,25518.0,25542.0,25517.0,740
20190311  21:30:00,25406.0,25272.0,25408.0,25238.0,11046
20190311  22:00:00,25539.0,25406.0,25546.0,25399.0,12717
20190311  23:00:00,25565.0,25538.0,25587.0,25514.0,10329
20190312  00:00:00,25542.0,25566.0,25579.0,25528.0,5985
20190312  01:00:00,25623.0,25543.0,25629.0,25542.0,4866
20190312  02:00:00,25627.0,25622.0,25659.0,25608.0,4957
20190312  03:00:00,25661.0,25626.0,25675.0,25606.0,6515
20190312  04:00:00,25673.0,25661.0,25677.0,25650.0,1561
20190312  04:30:00,25686.0,25675.0,25714.0,25675.0,752
20190312  21:30:00,25631.0,25627.0,25680.0,25615.0,23670
20190312  22:00:00,25642.0,25631.0,25701.0,25591.0,24413
20190312  23:00:00,25628.0,25640.0,25641.0,25565.0,21456
20190313  00:00:00,25582.0,25628.0,25633.0,25544.0,15323
20190313  01:00:00,25600.0,25582.0,25609.0,25554.0,11400
20190313  02:00:00,25615.0,25600.0,25643.0,25598.0,11278
20190313  03:00:00,25588.0,25616.0,25622.0,25548.0,19211
20190313  04:00:00,25588.0,25589.0,25592.0,25569.0,1787
20190313  04:30:00,25619.0,25589.0,25621.0,25585.0,957
20190313  21:30:00,25717.0,25688.0,25719.0,25664.0,19432
20190313  22:00:00,25712.0,25717.0,25733.0,25692.0,20522
20190313  23:00:00,25757.0,25711.0,25795.0,25710.0,21740
20190314  00:00:00,25758.0,25757.0,25774.0,25720.0,16805
20190314  01:00:00,25766.0,25759.0,25773.0,25738.0,10053
20190314  02:00:00,25677.0,25767.0,25810.0,25598.0,30894
20190314  03:00:00,25732.0,25677.0,25745.0,25655.0,27853
20190314  04:00:00,25768.0,25731.0,25769.0,25726.0,3003
20190314  04:30:00,25782.0,25769.0,25794.0,25768.0,2069
20190314  21:30:00,25725.0,25720.0,25762.0,25716.0,15761
20190314  22:00:00,25723.0,25725.0,25728.0,25650.0,24284
20190314  23:00:00,25762.0,25723.0,25785.0,25702.0,18419
20190315  00:00:00,25745.0,25762.0,25781.0,25739.0,16135
20190315  01:00:00,25725.0,25747.0,25753.0,25712.0,10639
20190315  02:00:00,25731.0,25723.0,25741.0,25707.0,8490
20190315  03:00:00,25747.0,25732.0,25767.0,25727.0,14651
20190315  04:00:00,25742.0,25747.0,25751.0,25729.0,2137
20190315  04:30:00,25743.0,25743.0,25747.0,25733.0,703
20190315  21:30:00,25755.0,25798.0,25809.0,25745.0,22441
20190315  22:00:00,25720.0,25755.0,25764.0,25675.0,28183
20190315  23:00:00,25897.0,25721.0,25902.0,25707.0,35537
20190316  00:00:00,25936.0,25897.0,25958.0,25885.0,22065
20190316  01:00:00,25916.0,25938.0,25950.0,25907.0,13581
20190316  02:00:00,25896.0,25915.0,25919.0,25868.0,12526
20190316  03:00:00,25877.0,25896.0,25896.0,25844.0,23791
20190316  04:00:00,25895.0,25876.0,25907.0,25858.0,4217
20190316  04:30:00,25895.0,25893.0,25899.0,25882.0,894
20190318  21:30:00,25894.0,25835.0,25904.0,25832.0,17056
20190318  22:00:00,25898.0,25893.0,25915.0,25859.0,20224
20190318  23:00:00,25844.0,25899.0,25905.0,25812.0,19792
20190319  00:00:00,25890.0,25844.0,25895.0,25833.0,13820
20190319  01:00:00,25911.0,25889.0,25915.0,25878.0,8615
20190319  02:00:00,25913.0,25912.0,25930.0,25889.0,8967
20190319  03:00:00,25943.0,25914.0,25956.0,25889.0,13996
20190319  04:00:00,25958.0,25942.0,25973.0,25941.0,3065
20190319  04:30:00,25958.0,25958.0,25966.0,25951.0,1035
20190319  21:30:00,26026.0,26056.0,26083.0,26023.0,19503
20190319  22:00:00,26031.0,26027.0,26095.0,26026.0,21757
20190319  23:00:00,26124.0,26032.0,26126.0,26032.0,16829
20190320  00:00:00,26040.0,26124.0,26142.0,25950.0,32947
20190320  01:00:00,25992.0,26040.0,26052.0,25985.0,18620
20190320  02:00:00,25968.0,25992.0,26018.0,25944.0,18062
20190320  03:00:00,25934.0,25969.0,25984.0,25844.0,32875
20190320  04:00:00,25901.0,25935.0,25937.0,25891.0,3373
20190320  04:30:00,25908.0,25903.0,25912.0,25895.0,636
20190320  21:30:00,25789.0,25888.0,25893.0,25778.0,23765
20190320  22:00:00,25846.0,25789.0,25861.0,25784.0,24455
20190320  23:00:00,25746.0,25847.0,25875.0,25735.0,21508
20190321  00:00:00,25749.0,25746.0,25800.0,25697.0,25079
20190321  01:00:00,25775.0,25748.0,25775.0,25737.0,10637
20190321  02:00:00,25925.0,25773.0,25960.0,25773.0,47820
20190321  03:00:00,25777.0,25925.0,25941.0,25763.0,31806
20190321  04:00:00,25719.0,25777.0,25778.0,25711.0,8292
20190321  04:30:00,25698.0,25719.0,25728.0,25693.0,1360
20190321  21:30:00,25818.0,25673.0,25843.0,25671.0,23565
20190321  22:00:00,25891.0,25819.0,25893.0,25815.0,31732
20190321  23:00:00,26002.0,25892.0,26008.0,25891.0,33526
20190322  00:00:00,25924.0,26002.0,26007.0,25895.0,23766
20190322  01:00:00,25964.0,25924.0,25984.0,25924.0,18125
20190322  02:00:00,26000.0,25964.0,26036.0,25964.0,19317
20190322  03:00:00,25995.0,26000.0,26041.0,25979.0,24828
20190322  04:00:00,26009.0,25996.0,26011.0,25976.0,3834
20190322  04:30:00,25984.0,26006.0,26007.0,25979.0,1111
20190322  21:30:00,25719.0,25826.0,25907.0,25690.0,31160
20190322  22:00:00,25695.0,25719.0,25826.0,25690.0,39114
20190322  23:00:00,25564.0,25694.0,25735.0,25561.0,41751
20190323  00:00:00,25607.0,25564.0,25619.0,25532.0,32762
20190323  01:00:00,25579.0,25606.0,25649.0,25565.0,21214
20190323  02:00:00,25719.0,25580.0,25738.0,25573.0,25625
20190323  03:00:00,25534.0,25718.0,25745.0,25526.0,35650
20190323  04:00:00,25569.0,25534.0,25598.0,25533.0,5706
20190323  04:30:00,25539.0,25564.0,25567.0,25532.0,1407
20190325  21:30:00,25411.0,25503.0,25599.0,25408.0,29480
20190325  22:00:00,25560.0,25411.0,25579.0,25392.0,36708
20190325  23:00:00,25527.0,25560.0,25628.0,25525.0,26959
20190326  00:00:00,25524.0,25527.0,25577.0,25451.0,21404
20190326  01:00:00,25456.0,25524.0,25556.0,25439.0,19352
20190326  02:00:00,25498.0,25457.0,25505.0,25405.0,16513
20190326  03:00:00,25541.0,25497.0,25565.0,25482.0,23790
20190326  04:00:00,25575.0,25540.0,25577.0,25533.0,3622
20190326  04:30:00,25579.0,25577.0,25587.0,25570.0,993
20190326  21:30:00,25789.0,25739.0,25807.0,25739.0,19423
20190326  22:00:00,25810.0,25788.0,25819.0,25731.0,25290
20190326  23:00:00,25707.0,25810.0,25817.0,25680.0,22512
20190327  00:00:00,25655.0,25708.0,25725.0,25615.0,21107
20190327  01:00:00,25588.0,25656.0,25672.0,25582.0,13767
20190327  02:00:00,25626.0,25588.0,25631.0,25563.0,15341
20190327  03:00:00,25675.0,25626.0,25681.0,25576.0,21039
20190327  04:00:00,25673.0,25675.0,25681.0,25654.0,2918
20190327  04:30:00,25669.0,25670.0,25671.0,25616.0,2312
20190327  21:30:00,25668.0,25695.0,25778.0,25653.0,25016
20190327  22:00:00,25625.0,25670.0,25752.0,25592.0,34210
20190327  23:00:00,25479.0,25626.0,25646.0,25438.0,40309
20190328  00:00:00,25540.0,25479.0,25565.0,25461.0,24029
20190328  01:00:00,25610.0,25540.0,25630.0,25509.0,20299
20190328  02:00:00,25634.0,25611.0,25669.0,25603.0,20401
20190328  03:00:00,25642.0,25634.0,25695.0,25607.0,21898
20190328  04:00:00,25654.0,25642.0,25664.0,25628.0,3379
20190328  04:30:00,25626.0,25654.0,25657.0,25625.0,830
20190328  21:30:00,25706.0,25723.0,25759.0,25662.0,21180
20190328  22:00:00,25682.0,25707.0,25744.0,25675.0,23837
20190328  23:00:00,25635.0,25683.0,25694.0,25595.0,26249
20190329  00:00:00,25655.0,25636.0,25661.0,25582.0,16001
20190329  01:00:00,25693.0,25655.0,25694.0,25650.0,11193
20190329  02:00:00,25694.0,25693.0,25700.0,25665.0,8784
20190329  03:00:00,25728.0,25694.0,25739.0,25682.0,15632
20190329  04:00:00,25734.0,25729.0,25741.0,25712.0,2395
20190329  04:30:00,25745.0,25734.0,25747.0,25734.0,696
20190329  21:30:00,25836.0,25884.0,25897.0,25798.0,20548
20190329  22:00:00,25817.0,25837.0,25873.0,25779.0,27886
20190329  23:00:00,25860.0,25817.0,25889.0,25817.0,20527
20190330  00:00:00,25881.0,25861.0,25890.0,25816.0,16096
20190330  01:00:00,25871.0,25881.0,25887.0,25842.0,9885
20190330  02:00:00,25914.0,25870.0,25921.0,25857.0,14862
20190330  03:00:00,25932.0,25914.0,25954.0,25866.0,31176
20190330  04:00:00,25942.0,25932.0,25944.0,25913.0,5004
20190330  04:30:00,25947.0,25944.0,25961.0,25943.0,837
20190401  21:30:00,26103.0,26145.0,26153.0,26076.0,20325
20190401  22:00:00,26169.0,26105.0,26177.0,26105.0,25744
20190401  23:00:00,26190.0,26170.0,26203.0,26154.0,17168
20190402  00:00:00,26202.0,26190.0,26203.0,26160.0,10274
20190402  01:00:00,26210.0,26202.0,26211.0,26180.0,8792
20190402  02:00:00,26232.0,26209.0,26249.0,26205.0,10901
20190402  03:00:00,26258.0,26232.0,26285.0,26199.0,15588
20190402  04:00:00,26256.0,26257.0,26261.0,26226.0,3693
20190402  04:30:00,26243.0,26250.0,26259.0,26239.0,1072
20190402  21:30:00,26213.0,26216.0,26225.0,26163.0,21685
20190402  22:00:00,26164.0,26212.0,26212.0,26141.0,22648
20190402  23:00:00,26174.0,26164.0,26186.0,26123.0,20554
20190403  00:00:00,26154.0,26176.0,26190.0,26136.0,11665
20190403  01:00:00,26156.0,26154.0,26179.0,26146.0,9281
20190403  02:00:00,26186.0,26157.0,26186.0,26148.0,8134
20190403  03:00:00,26181.0,26186.0,26203.0,26174.0,12724
20190403  04:00:00,26147.0,26181.0,26183.0,26147.0,3208
20190403  04:30:00,26140.0,26151.0,26151.0,26138.0,645
20190403  21:30:00,26192.0,26273.0,26279.0,26178.0,19349
20190403  22:00:00,26232.0,26191.0,26240.0,26150.0,27471
20190403  23:00:00,26272.0,26233.0,26292.0,26228.0,19643
20190404  00:00:00,26245.0,26271.0,26280.0,26233.0,11323
20190404  01:00:00,26181.0,26245.0,26261.0,26173.0,14435
20190404  02:00:00,26186.0,26181.0,26213.0,26161.0,15285
20190404  03:00:00,26216.0,26185.0,26239.0,26137.0,23093
20190404  04:00:00,26239.0,26216.0,26241.0,26205.0,2816
20190404  04:30:00,26242.0,26239.0,26244.0,26227.0,534
20190404  21:30:00,26351.0,26233.0,26363.0,26219.0,25376
20190404  22:00:00,26384.0,26351.0,26397.0,26303.0,29322
20190404  23:00:00,26342.0,26384.0,26394.0,26325.0,22021
20190405  00:00:00,26327.0,26341.0,26367.0,26304.0,20438
20190405  01:00:00,26338.0,26328.0,26351.0,26311.0,10852
20190405  02:00:00,26383.0,26339.0,26388.0,26333.0,9248
20190405  03:00:00,26388.0,26383.0,26407.0,26363.0,16042
20190405  04:00:00,26385.0,26388.0,26397.0,26380.0,2708
20190405  04:30:00,26385.0,26386.0,26405.0,26382.0,923
20190405  21:30:00,26455.0,26469.0,26495.0,26416.0,22151
20190405  22:00:00,26424.0,26454.0,26459.0,26401.0,21727
20190405  23:00:00,26413.0,26425.0,26440.0,26398.0,17217
20190406  00:00:00,26412.0,26412.0,26437.0,26371.0,11577
20190406  01:00:00,26426.0,26413.0,26427.0,26402.0,7630
20190406  02:00:00,26416.0,26425.0,26433.0,26405.0,8719
20190406  03:00:00,26429.0,26416.0,26451.0,26398.0,15935
20190406  04:00:00,26395.0,26428.0,26435.0,26385.0,4320
20190406  04:30:00,26376.0,26395.0,26400.0,26374.0,724
20190408  21:30:00,26280.0,26296.0,26307.0,26245.0,20814
20190408  22:00:00,26317.0,26281.0,26334.0,26261.0,19782
20190408  23:00:00,26305.0,26316.0,26342.0,26294.0,14724
20190409  00:00:00,26310.0,26306.0,26316.0,26273.0,10427
20190409  01:00:00,26316.0,26311.0,26323.0,26302.0,6542
20190409  02:00:00,26315.0,26316.0,26328.0,26303.0,7122
20190409  03:00:00,26342.0,26315.0,26350.0,26302.0,12119
20190409  04:00:00,26332.0,26343.0,26345.0,26328.0,2496
20190409  04:30:00,26340.0,26332.0,26346.0,26331.0,452
20190409  21:30:00,26138.0,26217.0,26220.0,26101.0,28398
20190409  22:00:00,26184.0,26139.0,26201.0,26120.0,26625
20190409  23:00:00,26181.0,26184.0,26197.0,26159.0,15934
20190410  00:00:00,26189.0,26182.0,26220.0,26176.0,13935
20190410  01:00:00,26167.0,26188.0,26189.0,26158.0,9899
20190410  02:00:00,26145.0,26166.0,26173.0,26133.0,12658
20190410  03:00:00,26167.0,26144.0,26175.0,26114.0,17515
20190410  04:00:00,26155.0,26168.0,26175.0,26138.0,3324
20190410  04:30:00,26143.0,26155.0,26155.0,26143.0,617
20190410  21:30:00,26160.0,26197.0,26213.0,26132.0,19200
20190410  22:00:00,26127.0,26159.0,26162.0,26104.0,21949
20190410  23:00:00,26139.0,26127.0,26156.0,26109.0,14413
20190411  00:00:00,26123.0,26139.0,26150.0,26116.0,7747
20190411  01:00:00,26149.0,26124.0,26156.0,26123.0,5692
20190411  02:00:00,26141.0,26151.0,26158.0,26105.0,12923
20190411  03:00:00,26164.0,26141.0,26172.0,26129.0,15273
20190411  04:00:00,26162.0,26164.0,26172.0,26159.0,3736
20190411  04:30:00,26174.0,26169.0,26179.0,26167.0,753
20190411  21:30:00,26194.0,26201.0,26226.0,26141.0,24942
20190411  22:00:00,26198.0,26195.0,26211.0,26165.0,21510
20190411  23:00:00,26108.0,26199.0,26202.0,26080.0,22594
20190412  00:00:00,26109.0,26108.0,26127.0,26101.0,11132
20190412  01:00:00,26089.0,26108.0,26124.0,26072.0,9751
20190412  02:00:00,26088.0,26089.0,26096.0,26057.0,11143
20190412  03:00:00,26141.0,26088.0,26156.0,26083.0,16904
20190412  04:00:00,26131.0,26140.0,26141.0,26115.0,3280
20190412  04:30:00,26157.0,26131.0,26158.0,26127.0,1074
20190412  21:30:00,26404.0,26386.0,26438.0,26355.0,25421
20190412  22:00:00,26337.0,26405.0,26413.0,26307.0,31879
20190412  23:00:00,26349.0,26337.0,26358.0,26308.0,17174
20190413  00:00:00,26390.0,26349.0,26391.0,26334.0,10274
20190413  01:00:00,26393.0,26391.0,26404.0,26387.0,10140
20190413  02:00:00,26372.0,26393.0,26411.0,26364.0,11304
20190413  03:00:00,26408.0,26373.0,26412.0,26368.0,17500
20190413  04:00:00,26406.0,26408.0,26409.0,26393.0,4194
20190413  04:30:00,26412.0,26408.0,26416.0,26396.0,652
20190415  21:30:00,26366.0,26397.0,26418.0,26340.0,22505
20190415  22:00:00,26345.0,26365.0,26384.0,26324.0,22780
20190415  23:00:00,26340.0,26346.0,26368.0,26330.0,13143
20190416  00:00:00,26342.0,26340.0,26350.0,26314.0,10635
20190416  01:00:00,26386.0,26342.0,26389.0,26340.0,9449
20190416  02:00:00,26379.0,26386.0,26389.0,26365.0,9043
20190416  03:00:00,26379.0,26380.0,26389.0,26361.0,13183
20190416  04:00:00,26372.0,26379.0,26386.0,26364.0,2676
20190416  04:30:00,26385.0,26372.0,26386.0,26371.0,585
20190416  21:30:00,26444.0,26528.0,26530.0,26425.0,26332
20190416  22:00:00,26403.0,26442.0,26453.0,26393.0,27708
20190416  23:00:00,26433.0,26404.0,26445.0,26396.0,17128
20190417  00:00:00,26427.0,26433.0,26446.0,26411.0,10326
20190417  01:00:00,26410.0,26428.0,26428.0,26401.0,8025
20190417  02:00:00,26458.0,26409.0,26464.0,26395.0,16065
20190417  03:00:00,26447.0,26458.0,26470.0,26390.0,18980
20190417  04:00:00,26446.0,26448.0,26464.0,26417.0,5803
20190417  04:30:00,26433.0,26448.0,26451.0,26428.0,716
20190417  21:30:00,26406.0,26503.0,26510.0,26380.0,31523
20190417  22:00:00,26425.0,26405.0,26450.0,26388.0,29992
20190417  23:00:00,26413.0,26426.0,26454.0,26399.0,20238
20190418  00:00:00,26442.0,26414.0,26456.0,26388.0,15689
20190418  01:00:00,26435.0,26443.0,26463.0,26431.0,12129
20190418  02:00:00,26438.0,26435.0,26451.0,26405.0,16300
20190418  03:00:00,26444.0,26438.0,26476.0,26438.0,15880
20190418  04:00:00,26422.0,26444.0,26446.0,26421.0,4097
20190418  04:30:00,26436.0,26425.0,26436.0,26424.0,628
20190418  21:30:00,26515.0,26503.0,26570.0,26490.0,24684
20190418  22:00:00,26491.0,26516.0,26519.0,26440.0,30861
20190418  23:00:00,26545.0,26493.0,26546.0,26483.0,17902
20190419  00:00:00,26539.0,26546.0,26563.0,26538.0,11974
20190419  01:00:00,26579.0,26540.0,26587.0,26532.0,9666
20190419  02:00:00,26589.0,26578.0,26591.0,26565.0,7469
20190419  03:00:00,26556.0,26588.0,26596.0,26541.0,18399
20190419  04:00:00,26567.0,26557.0,26569.0,26548.0,2420
20190419  04:30:00,26564.0,26567.0,26574.0,26559.0,753
20190422  21:30:00,26498.0,26459.0,26522.0,26445.0,19955
20190422  22:00:00,26509.0,26498.0,26514.0,26471.0,17603
20190422  23:00:00,26533.0,26508.0,26547.0,26493.0,13092
20190423  00:00:00,26522.0,26534.0,26534.0,26514.0,9518
20190423  01:00:00,26512.0,26522.0,26523.0,26502.0,6897
20190423  02:00:00,26498.0,26513.0,26519.0,26495.0,9017
20190423  03:00:00,26507.0,26498.0,26517.0,26485.0,11190
20190423  04:00:00,26512.0,26508.0,26522.0,26498.0,2675
20190423  04:30:00,26509.0,26515.0,26530.0,26509.0,602
20190423  21:30:00,26546.0,26545.0,26550.0,26504.0,20809
20190423  22:00:00,26557.0,26546.0,26583.0,26523.0,26616
20190423  23:00:00,26646.0,26558.0,26650.0,26555.0,28790
20190424  00:00:00,26663.0,26646.0,26686.0,26644.0,15014
20190424  01:00:00,26637.0,26664.0,26672.0,26631.0,10335
20190424  02:00:00,26633.0,26636.0,26648.0,26627.0,9060
20190424  03:00:00,26643.0,26633.0,26654.0,26618.0,15336
20190424  04:00:00,26639.0,26643.0,26652.0,26632.0,3447
20190424  04:30:00,26642.0,26643.0,26657.0,26640.0,926
20190424  21:30:00,26622.0,26639.0,26643.0,26588.0,20537
20190424  22:00:00,26659.0,26622.0,26665.0,26603.0,18537
20190424  23:00:00,26634.0,26659.0,26670.0,26623.0,10441
20190425  00:00:00,26611.0,26635.0,26640.0,26604.0,7903
20190425  01:00:00,26591.0,26612.0,26615.0,26571.0,11016
20190425  02:00:00,26623.0,26590.0,26629.0,26582.0,6498
20190425  03:00:00,26593.0,26623.0,26633.0,26587.0,14953
20190425  04:00:00,26534.0,26594.0,26603.0,26530.0,5089
20190425  04:30:00,26521.0,26537.0,26548.0,26515.0,1546
20190425  21:30:00,26359.0,26395.0,26398.0,26306.0,28136
20190425  22:00:00,26364.0,26358.0,26381.0,26289.0,30844
20190425  23:00:00,26464.0,26364.0,26486.0,26362.0,29194
20190426  00:00:00,26466.0,26464.0,26475.0,26442.0,15704
20190426  01:00:00,26491.0,26466.0,26491.0,26459.0,10913
20190426  02:00:00,26497.0,26490.0,26518.0,26490.0,8552
20190426  03:00:00,26447.0,26497.0,26502.0,26446.0,15897
20190426  04:00:00,26434.0,26447.0,26456.0,26428.0,6460
20190426  04:30:00,26421.0,26439.0,26442.0,26411.0,832
20190426  21:30:00,26399.0,26428.0,26450.0,26375.0,25928
20190426  22:00:00,26423.0,26400.0,26454.0,26377.0,27705
20190426  23:00:00,26472.0,26424.0,26483.0,26408.0,16565
20190427  00:00:00,26458.0,26473.0,26479.0,26449.0,8720
20190427  01:00:00,26457.0,26459.0,26468.0,26445.0,6888
20190427  02:00:00,26452.0,26457.0,26478.0,26429.0,10705
20190427  03:00:00,26519.0,26453.0,26524.0,26453.0,19317
20190427  04:00:00,26517.0,26518.0,26527.0,26505.0,4204
20190427  04:30:00,26489.0,26507.0,26522.0,26489.0,727
20190429  21:30:00,26521.0,26518.0,26546.0,26495.0,17482
20190429  22:00:00,26529.0,26521.0,26551.0,26508.0,20179
20190429  23:00:00,26529.0,26529.0,26543.0,26512.0,11345
20190430  00:00:00,26555.0,26530.0,26560.0,26517.0,9156
20190430  01:00:00,26559.0,26555.0,26560.0,26541.0,5899
20190430  02:00:00,26560.0,26559.0,26581.0,26557.0,9203
20190430  03:00:00,26535.0,26561.0,26575.0,26529.0,12519
20190430  04:00:00,26543.0,26535.0,26559.0,26523.0,5206
20190430  04:30:00,26563.0,26541.0,26565.0,26536.0,933
20190430  21:30:00,26512.0,26590.0,26591.0,26498.0,23048
20190430  22:00:00,26466.0,26512.0,26520.0,26463.0,29987
20190430  23:00:00,26502.0,26465.0,26531.0,26395.0,36354
20190501  00:00:00,26510.0,26503.0,26527.0,26488.0,12896
20190501  01:00:00,26552.0,26510.0,26555.0,26510.0,11489
20190501  02:00:00,26551.0,26553.0,26562.0,26530.0,10801
20190501  03:00:00,26561.0,26551.0,26593.0,26531.0,21508
20190501  04:00:00,26592.0,26560.0,26605.0,26554.0,5470
20190501  04:30:00,26636.0,26592.0,26650.0,26591.0,2481
20190501  21:30:00,26626.0,26627.0,26650.0,26603.0,17138
20190501  22:00:00,26622.0,26625.0,26625.0,26591.0,20022
20190501  23:00:00,26639.0,26622.0,26669.0,26618.0,14387
20190502  00:00:00,26585.0,26640.0,26641.0,26553.0,19751
20190502  01:00:00,26600.0,26586.0,26619.0,26566.0,14064
20190502  02:00:00,26566.0,26600.0,26640.0,26512.0,31018
20190502  03:00:00,26407.0,26565.0,26575.0,26403.0,31774
20190502  04:00:00,26386.0,26408.0,26410.0,26366.0,5987
20190502  04:30:00,26337.0,26385.0,26385.0,26330.0,1603
20190502  21:30:00,26403.0,26355.0,26421.0,26323.0,25725
20190502  22:00:00,26337.0,26403.0,26426.0,26335.0,27145
20190502  23:00:00,26185.0,26338.0,26376.0,26145.0,58321
20190503  00:00:00,26195.0,26185.0,26223.0,26155.0,30663
20190503  01:00:00,26240.0,26194.0,26281.0,26164.0,26066
20190503  02:00:00,26226.0,26241.0,26286.0,26202.0,21662
20190503  03:00:00,26275.0,26226.0,26280.0,26218.0,22384
20190503  04:00:00,26262.0,26275.0,26276.0,26237.0,3989
20190503  04:30:00,26272.0,26262.0,26279.0,26262.0,797
20190503  21:30:00,26409.0,26410.0,26446.0,26391.0,20417
20190503  22:00:00,26402.0,26407.0,26422.0,26335.0,27790
20190503  23:00:00,26439.0,26402.0,26445.0,26369.0,22126
20190504  00:00:00,26472.0,26439.0,26498.0,26436.0,19538
20190504  01:00:00,26492.0,26472.0,26507.0,26462.0,11410
20190504  02:00:00,26487.0,26491.0,26495.0,26468.0,8403
20190504  03:00:00,26473.0,26487.0,26492.0,26464.0,15625
20190504  04:00:00,26496.0,26472.0,26498.0,26468.0,3202
20190504  04:30:00,26514.0,26496.0,26515.0,26494.0,940
20190506  21:30:00,26174.0,26009.0,26178.0,25981.0,32287
20190506  22:00:00,26251.0,26174.0,26267.0,26138.0,38143
20190506  23:00:00,26236.0,26250.0,26300.0,26222.0,30298
20190507  00:00:00,26233.0,26235.0,26268.0,26215.0,14538
20190507  01:00:00,26277.0,26232.0,26277.0,26215.0,9563
20190507  02:00:00,26409.0,26276.0,26413.0,26261.0,18094
20190507  03:00:00,26406.0,26408.0,26444.0,26389.0,24534
20190507  04:00:00,26405.0,26405.0,26429.0,26388.0,3594
20190507  04:30:00,26199.0,26405.0,26418.0,26198.0,1963
20190507  21:30:00,26155.0,26164.0,26220.0,26090.0,39590
20190507  22:00:00,26034.0,26155.0,26155.0,26023.0,50252
20190507  23:00:00,25979.0,26033.0,26050.0,25949.0,45751
20190508  00:00:00,25974.0,25978.0,26037.0,25940.0,26823
20190508  01:00:00,25864.0,25974.0,25982.0,25836.0,38463
20190508  02:00:00,25843.0,25865.0,25909.0,25788.0,38490
20190508  03:00:00,25928.0,25843.0,25939.0,25748.0,51677
20190508  04:00:00,25968.0,25928.0,25982.0,25919.0,7407
20190508  04:30:00,25967.0,25964.0,25969.0,25938.0,1308
20190508  21:30:00,25928.0,25902.0,25956.0,25843.0,41630
20190508  22:00:00,25987.0,25928.0,25992.0,25866.0,40047
20190508  23:00:00,25970.0,25987.0,26053.0,25926.0,53338
20190509  00:00:00,26018.0,25970.0,26022.0,25917.0,18123
20190509  01:00:00,26012.0,26019.0,26038.0,25987.0,15262
20190509  02:00:00,26037.0,26012.0,26048.0,25986.0,14084
20190509  03:00:00,25931.0,26037.0,26076.0,25918.0,24714
20190509  04:00:00,26005.0,25932.0,26017.0,25931.0,4686
20190509  04:30:00,25989.0,26003.0,26003.0,25977.0,1008
20190509  21:30:00,25671.0,25736.0,25783.0,25632.0,39300
20190509  22:00:00,25527.0,25672.0,25672.0,25519.0,51369
20190509  23:00:00,25588.0,25526.0,25606.0,25497.0,38680
20190510  00:00:00,25767.0,25588.0,25819.0,25564.0,60443
20190510  01:00:00,25813.0,25766.0,25868.0,25742.0,31030
20190510  02:00:00,25774.0,25814.0,25860.0,25767.0,23471
20190510  03:00:00,25808.0,25773.0,25839.0,25706.0,32228
20190510  04:00:00,25813.0,25808.0,25844.0,25800.0,3613
20190510  04:30:00,25803.0,25813.0,25829.0,25803.0,612
20190510  21:30:00,25682.0,25716.0,25764.0,25673.0,25258
20190510  22:00:00,25515.0,25683.0,25691.0,25501.0,45199
20190510  23:00:00,25517.0,25513.0,25579.0,25461.0,50890
20190511  00:00:00,25696.0,25516.0,25718.0,25514.0,34648
20190511  01:00:00,25807.0,25695.0,25829.0,25684.0,32336
20190511  02:00:00,25869.0,25807.0,25897.0,25773.0,23174
20190511  03:00:00,25942.0,25869.0,26013.0,25869.0,35334
20190511  04:00:00,25958.0,25943.0,25965.0,25919.0,4006
20190511  04:30:00,25957.0,25956.0,25982.0,25953.0,1295
20190513  21:30:00,25442.0,25421.0,25526.0,25403.0,33076
20190513  22:00:00,25382.0,25442.0,25448.0,25333.0,51765
20190513  23:00:00,25357.0,25381.0,25404.0,25289.0,39999
20190514  00:00:00,25242.0,25356.0,25359.0,25237.0,29746
20190514  01:00:00,25311.0,25243.0,25317.0,25212.0,26996
20190514  02:00:00,25361.0,25310.0,25400.0,25257.0,40714
20190514  03:00:00,25313.0,25360.0,25398.0,25240.0,36334
20190514  04:00:00,25272.0,25313.0,25328.0,25263.0,5174
20190514  04:30:00,25293.0,25270.0,25293.0,25255.0,1329
20190514  21:30:00,25425.0,25393.0,25454.0,25376.0,27193
20190514  22:00:00,25508.0,25424.0,25528.0,25424.0,36417
20190514  23:00:00,25630.0,25508.0,25653.0,25487.0,32751
20190515  00:00:00,25601.0,25629.0,25646.0,25580.0,17270
20190515  01:00:00,25657.0,25601.0,25674.0,25601.0,13826
20190515  02:00:00,25602.0,25656.0,25666.0,25579.0,19278
20190515  03:00:00,25525.0,25601.0,25641.0,25511.0,26078
20190515  04:00:00,25569.0,25525.0,25571.0,25521.0,3827
20190515  04:30:00,25571.0,25568.0,25580.0,25564.0,804
20190515  21:30:00,25379.0,25370.0,25396.0,25323.0,30355
20190515  22:00:00,25557.0,25377.0,25570.0,25344.0,50032
20190515  23:00:00,25650.0,25559.0,25661.0,25527.0,25198
20190516  00:00:00,25626.0,25652.0,25681.0,25609.0,17591
20190516  01:00:00,25662.0,25627.0,25667.0,25604.0,12972
20190516  02:00:00,25671.0,25663.0,25707.0,25659.0,12574
20190516  03:00:00,25642.0,25670.0,25711.0,25633.0,19882
20190516  04:00:00,25667.0,25642.0,25678.0,25639.0,3824
20190516  04:30:00,25663.0,25666.0,25687.0,25662.0,779
20190516  21:30:00,25853.0,25738.0,25861.0,25727.0,27283
20190516  22:00:00,25903.0,25853.0,25904.0,25829.0,28192
20190516  23:00:00,25921.0,25902.0,25942.0,25869.0,21347
20190517  00:00:00,25896.0,25922.0,25952.0,25889.0,15837
20190517  01:00:00,25876.0,25898.0,25928.0,25861.0,15734
20190517  02:00:00,25886.0,25875.0,25926.0,25858.0,14646
20190517  03:00:00,25857.0,25886.0,25887.0,25821.0,28107
20190517  04:00:00,25865.0,25857.0,25877.0,25853.0,3309
20190517  04:30:00,25873.0,25865.0,25880.0,25852.0,1026
20190517  21:30:00,25735.0,25638.0,25773.0,25625.0,26611
20190517  22:00:00,25901.0,25734.0,25927.0,25713.0,44040
20190517  23:00:00,25887.0,25900.0,25946.0,25842.0,34391
20190518  00:00:00,25887.0,25887.0,25901.0,25826.0,24223
20190518  01:00:00,25902.0,25886.0,25929.0,25865.0,17850
20190518  02:00:00,25884.0,25902.0,25915.0,25854.0,12831
20190518  03:00:00,25756.0,25885.0,25890.0,25730.0,41438
20190518  04:00:00,25780.0,25758.0,25788.0,25747.0,3453
20190518  04:30:00,25766.0,25772.0,25777.0,25759.0,796
20190520  21:30:00,25679.0,25626.0,25694.0,25551.0,32553
20190520  22:00:00,25719.0,25679.0,25745.0,25642.0,35480
20190520  23:00:00,25680.0,25719.0,25732.0,25645.0,26201
20190521  00:00:00,25673.0,25679.0,25739.0,25666.0,18692
20190521  01:00:00,25702.0,25672.0,25718.0,25656.0,11329
20190521  02:00:00,25633.0,25703.0,25706.0,25623.0,13781
20190521  03:00:00,25672.0,25633.0,25693.0,25589.0,21791
20190521  04:00:00,25693.0,25672.0,25699.0,25662.0,2482
20190521  04:30:00,25716.0,25696.0,25722.0,25691.0,896
20190521  21:30:00,25790.0,25821.0,25836.0,25769.0,26213
20190521  22:00:00,25852.0,25790.0,25869.0,25780.0,30813
20190521  23:00:00,25799.0,25852.0,25862.0,25778.0,23485
20190522  00:00:00,25829.0,25799.0,25831.0,25790.0,14278
20190522  01:00:00,25845.0,25829.0,25853.0,25823.0,10719
20190522  02:00:00,25859.0,25845.0,25879.0,25830.0,12923
20190522  03:00:00,25869.0,25860.0,25892.0,25841.0,17986
20190522  04:00:00,25872.0,25868.0,25881.0,25861.0,2503
20190522  04:30:00,25855.0,25874.0,25876.0,25855.0,545
20190522  21:30:00,25821.0,25793.0,25826.0,25759.0,19901
20190522  22:00:00,25785.0,25821.0,25873.0,25759.0,32427
20190522  23:00:00,25802.0,25784.0,25841.0,25752.0,23387
20190523  00:00:00,25766.0,25802.0,25812.0,25751.0,13784
20190523  01:00:00,25798.0,25765.0,25809.0,25747.0,13923
20190523  02:00:00,25813.0,25798.0,25832.0,25771.0,13018
20190523  03:00:00,25764.0,25813.0,25822.0,25763.0,13898
20190523  04:00:00,25763.0,25766.0,25775.0,25755.0,2514
20190523  04:30:00,25764.0,25763.0,25767.0,25749.0,775
20190523  21:30:00,25376.0,25528.0,25529.0,25362.0,32471
20190523  22:00:00,25475.0,25377.0,25494.0,25367.0,37363
20190523  23:00:00,25368.0,25475.0,25479.0,25354.0,31536
20190524  00:00:00,25344.0,25367.0,25414.0,25338.0,26152
20190524  01:00:00,25365.0,25342.0,25393.0,25323.0,19341
20190524  02:00:00,25343.0,25365.0,25382.0,25317.0,18803
20190524  03:00:00,25482.0,25342.0,25491.0,25320.0,43829
20190524  04:00:00,25457.0,25481.0,25483.0,25455.0,3600
20190524  04:30:00,25493.0,25474.0,25501.0,25471.0,2039
20190524  21:30:00,25626.0,25616.0,25661.0,25604.0,21589
20190524  22:00:00,25498.0,25626.0,25639.0,25492.0,30976
20190524  23:00:00,25548.0,25497.0,25563.0,25496.0,23062
20190525  00:00:00,25615.0,25548.0,25615.0,25520.0,19093
20190525  01:00:00,25587.0,25615.0,25624.0,25568.0,11943
20190525  02:00:00,25585.0,25587.0,25602.0,25551.0,11187
20190525  03:00:00,25590.0,25585.0,25611.0,25569.0,16066
20190525  04:00:00,25617.0,25591.0,25622.0,25590.0,4104
20190525  04:30:00,25608.0,25621.0,25622.0,25603.0,689
20190528  21:30:00,25691.0,25616.0,25714.0,25613.0,17891
20190528  22:00:00,25605.0,25692.0,25702.0,25589.0,28591
20190528  23:00:00,25606.0,25604.0,25651.0,25558.0,25507
20190529  00:00:00,25598.0,25606.0,25632.0,25593.0,13662
20190529  01:00:00,25577.0,25598.0,25608.0,25574.0,10811
20190529  02:00:00,25497.0,25577.0,25577.0,25484.0,19449
20190529  03:00:00,25342.0,25497.0,25497.0,25340.0,36385
20190529  04:00:00,25364.0,25343.0,25381.0,25337.0,4971
20190529  04:30:00,25364.0,25362.0,25364.0,25327.0,1950
20190529  21:30:00,25141.0,25199.0,25199.0,25110.0,26956
20190529  22:00:00,25127.0,25141.0,25216.0,25118.0,37117
20190529  23:00:00,24969.0,25126.0,25180.0,24934.0,47932
20190530  00:00:00,25006.0,24968.0,25052.0,24956.0,27175
20190530  01:00:00,25069.0,25005.0,25105.0,24990.0,24652
20190530  02:00:00,25014.0,25069.0,25101.0,24985.0,20537
20190530  03:00:00,25117.0,25014.0,25151.0,24973.0,35324
20190530  04:00:00,25104.0,25118.0,25128.0,25101.0,3753
20190530  04:30:00,25106.0,25103.0,25112.0,25100.0,849
20190530  21:30:00,25193.0,25160.0,25206.0,25141.0,17961
20190530  22:00:00,25127.0,25193.0,25215.0,25107.0,26301
20190530  23:00:00,25126.0,25127.0,25151.0,25087.0,23025
20190531  00:00:00,25180.0,25126.0,25208.0,25112.0,19699
20190531  01:00:00,25146.0,25179.0,25191.0,25120.0,13607
20190531  02:00:00,25118.0,25146.0,25163.0,25062.0,18679
20190531  03:00:00,25168.0,25118.0,25179.0,25060.0,26057
20190531  04:00:00,25188.0,25169.0,25191.0,25162.0,2410
20190531  04:30:00,25183.0,25184.0,25191.0,25173.0,719
20190531  21:30:00,24892.0,24922.0,24924.0,24845.0,27058
20190531  22:00:00,24906.0,24890.0,24936.0,24860.0,31153
20190531  23:00:00,24947.0,24906.0,24987.0,24893.0,26222
20190601  00:00:00,24888.0,24947.0,24954.0,24875.0,16572
20190601  01:00:00,24931.0,24888.0,24946.0,24886.0,16111
20190601  02:00:00,24885.0,24931.0,24942.0,24824.0,26192
20190601  03:00:00,24815.0,24884.0,24889.0,24810.0,29854
20190601  04:00:00,24804.0,24816.0,24827.0,24786.0,6509
20190601  04:30:00,24802.0,24803.0,24817.0,24790.0,1226
20190603  21:30:00,24772.0,24806.0,24891.0,24756.0,26314
20190603  22:00:00,24904.0,24767.0,24935.0,24700.0,42917
20190603  23:00:00,24820.0,24903.0,24913.0,24814.0,25190
20190604  00:00:00,24762.0,24820.0,24834.0,24728.0,26767
20190604  01:00:00,24839.0,24761.0,24920.0,24732.0,43037
20190604  02:00:00,24757.0,24840.0,24893.0,24734.0,26612
20190604  03:00:00,24815.0,24758.0,24836.0,24681.0,39226
20190604  04:00:00,24873.0,24814.0,24873.0,24808.0,4525
20190604  04:30:00,24909.0,24873.0,24912.0,24865.0,2002
20190604  21:30:00,25068.0,25048.0,25100.0,25023.0,25664
20190604  22:00:00,25182.0,25069.0,25184.0,25044.0,47167
20190604  23:00:00,25243.0,25181.0,25260.0,25168.0,29461
20190605  00:00:00,25268.0,25242.0,25293.0,25201.0,17020
20190605  01:00:00,25282.0,25268.0,25289.0,25226.0,16093
20190605  02:00:00,25242.0,25282.0,25288.0,25237.0,13237
20190605  03:00:00,25330.0,25242.0,25343.0,25242.0,23071
20190605  04:00:00,25345.0,25329.0,25351.0,25323.0,4536
20190605  04:30:00,25358.0,25352.0,25361.0,25340.0,1506
20190605  21:30:00,25472.0,25492.0,25500.0,25412.0,22700
20190605  22:00:00,25416.0,25472.0,25517.0,25381.0,37918
20190605  23:00:00,25484.0,25416.0,25493.0,25402.0,21793
20190606  00:00:00,25481.0,25484.0,25499.0,25442.0,17424
20190606  01:00:00,25517.0,25480.0,25531.0,25480.0,12977
20190606  02:00:00,25504.0,25516.0,25544.0,25495.0,10622
20190606  03:00:00,25548.0,25505.0,25554.0,25459.0,18874
20190606  04:00:00,25552.0,25547.0,25560.0,25542.0,2327
20190606  04:30:00,25560.0,25556.0,25570.0,25550.0,1078
20190606  21:30:00,25537.0,25584.0,25615.0,25535.0,20589
20190606  22:00:00,25592.0,25537.0,25619.0,25520.0,23666
20190606  23:00:00,25584.0,25592.0,25654.0,25570.0,23634
20190607  00:00:00,25622.0,25585.0,25628.0,25575.0,11827
20190607  01:00:00,25629.0,25622.0,25637.0,25612.0,6660
20190607  02:00:00,25678.0,25629.0,25708.0,25613.0,20447
20190607  03:00:00,25733.0,25678.0,25804.0,25670.0,27645
20190607  04:00:00,25741.0,25732.0,25757.0,25728.0,3595
20190607  04:30:00,25701.0,25745.0,25746.0,25675.0,2075
20190607  21:30:00,25929.0,25815.0,25935.0,25808.0,22707
20190607  22:00:00,26072.0,25929.0,26073.0,25927.0,32036
20190607  23:00:00,25997.0,26072.0,26082.0,25978.0,25010
20190608  00:00:00,26048.0,25996.0,26050.0,25971.0,13873
20190608  01:00:00,26033.0,26049.0,26055.0,25999.0,11638
20190608  02:00:00,26006.0,26034.0,26055.0,26004.0,11461
20190608  03:00:00,25991.0,26006.0,26045.0,25973.0,18831
20190608  04:00:00,26002.0,25990.0,26018.0,25969.0,4864
20190608  04:30:00,26026.0,26003.0,26032.0,26002.0,883
20190610  21:30:00,26153.0,26155.0,26171.0,26119.0,17443
20190610  22:00:00,26156.0,26153.0,26178.0,26137.0,20071
20190610  23:00:00,26203.0,26156.0,26218.0,26137.0,17739
20190611  00:00:00,26122.0,26203.0,26206.0,26113.0,17035
20190611  01:00:00,26120.0,26123.0,26149.0,26106.0,13227
20190611  02:00:00,26140.0,26118.0,26143.0,26064.0,17054
20190611  03:00:00,26071.0,26139.0,26143.0,26064.0,20787
20190611  04:00:00,26085.0,26069.0,26087.0,26064.0,2326
20190611  04:30:00,26096.0,26085.0,26107.0,26085.0,1051
20190611  21:30:00,26172.0,26234.0,26258.0,26145.0,22140
20190611  22:00:00,26126.0,26171.0,26194.0,26090.0,26820
20190611  23:00:00,26086.0,26125.0,26152.0,26070.0,16891
20190612  00:00:00,26011.0,26088.0,26093.0,26006.0,20547
20190612  01:00:00,26078.0,26011.0,26087.0,26006.0,13249
20190612  02:00:00,26038.0,26078.0,26114.0,26017.0,13809
20190612  03:00:00,26058.0,26037.0,26078.0,26013.0,15696
20190612  04:00:00,26062.0,26057.0,26066.0,26047.0,2245
20190612  04:30:00,26065.0,26061.0,26072.0,26053.0,682
20190612  21:30:00,26059.0,26050.0,26095.0,26024.0,20384
20190612  22:00:00,26015.0,26060.0,26069.0,26001.0,22862
20190612  23:00:00,25969.0,26015.0,26030.0,25963.0,18343
20190613  00:00:00,26021.0,25969.0,26043.0,25967.0,13062
20190613  01:00:00,26007.0,26021.0,26025.0,25987.0,8490
20190613  02:00:00,26019.0,26007.0,26026.0,25980.0,7568
20190613  03:00:00,26013.0,26020.0,26021.0,25989.0,11464
20190613  04:00:00,26012.0,26014.0,26019.0,26004.0,2267
20190613  04:30:00,26013.0,26012.0,26022.0,26006.0,623
20190613  21:30:00,26108.0,26098.0,26150.0,26078.0,16620
20190613  22:00:00,26024.0,26109.0,26120.0,26022.0,24545
20190613  23:00:00,26061.0,26026.0,26072.0,25998.0,16877
20190614  00:00:00,26120.0,26061.0,26120.0,26044.0,13848
20190614  01:00:00,26104.0,26121.0,26135.0,26085.0,10775
20190614  02:00:00,26075.0,26104.0,26113.0,26048.0,11049
20190614  03:00:00,26118.0,26074.0,26123.0,26026.0,20870
20190614  04:00:00,26114.0,26117.0,26119.0,26102.0,2554
20190614  04:30:00,26131.0,26122.0,26141.0,26122.0,1175
20190614  21:30:00,26021.0,26083.0,26092.0,26000.0,12059
20190614  22:00:00,26091.0,26022.0,26104.0,26006.0,13662
20190614  23:00:00,26083.0,26092.0,26100.0,26019.0,12054
20190615  00:00:00,26084.0,26082.0,26099.0,26062.0,5557
20190615  01:00:00,26071.0,26084.0,26096.0,26069.0,3278
20190615  02:00:00,26110.0,26071.0,26117.0,26068.0,4265
20190615  03:00:00,26106.0,26108.0,26174.0,26099.0,9811
20190615  04:00:00,26121.0,26107.0,26132.0,26105.0,2044
20190615  04:30:00,26133.0,26121.0,26140.0,26120.0,503
20190617  21:30:00,26115.0,26118.0,26126.0,26055.0,6508
20190617  22:00:00,26160.0,26115.0,26174.0,26101.0,6458
20190617  23:00:00,26155.0,26160.0,26174.0,26143.0,3840
20190618  00:00:00,26148.0,26155.0,26161.0,26123.0,1908
20190618  01:00:00,26158.0,26147.0,26162.0,26137.0,1665
20190618  02:00:00,26139.0,26157.0,26178.0,26138.0,3811
20190618  03:00:00,26122.0,26138.0,26159.0,26101.0,5197
20190618  04:00:00,26128.0,26121.0,26139.0,26117.0,1130
20190618  04:30:00,26140.0,26134.0,26144.0,26129.0,194
20190618  21:30:00,26455.0,26288.0,26494.0,26261.0,39157
20190618  22:00:00,26531.0,26453.0,26539.0,26419.0,27856
20190618  23:00:00,26455.0,26531.0,26550.0,26454.0,22129
20190619  00:00:00,26483.0,26455.0,26500.0,26428.0,10397
20190619  01:00:00,26479.0,26483.0,26485.0,26429.0,10396
20190619  02:00:00,26509.0,26479.0,26527.0,26475.0,9473
20190619  03:00:00,26490.0,26508.0,26518.0,26455.0,16649
20190619  04:00:00,26508.0,26489.0,26509.0,26486.0,3462
20190619  04:30:00,26501.0,26511.0,26516.0,26499.0,722
20190619  21:30:00,26554.0,26508.0,26559.0,26503.0,23943
20190619  22:00:00,26528.0,26554.0,26562.0,26505.0,17308
20190619  23:00:00,26526.0,26529.0,26545.0,26510.0,12660
20190620  00:00:00,26498.0,26527.0,26529.0,26492.0,11044
20190620  01:00:00,26494.0,26497.0,26503.0,26464.0,11635
20190620  02:00:00,26535.0,26492.0,26588.0,26431.0,39900
20190620  03:00:00,26521.0,26534.0,26579.0,26515.0,27859
20190620  04:00:00,26534.0,26520.0,26539.0,26514.0,2758
20190620  04:30:00,26529.0,26534.0,26539.0,26520.0,536
20190620  21:30:00,26740.0,26766.0,26772.0,26720.0,25591
20190620  22:00:00,26688.0,26741.0,26768.0,26685.0,27194
20190620  23:00:00,26688.0,26689.0,26714.0,26662.0,18077
20190621  00:00:00,26650.0,26688.0,26691.0,26548.0,32196
20190621  01:00:00,26691.0,26651.0,26708.0,26644.0,14822
20190621  02:00:00,26734.0,26691.0,26738.0,26680.0,12684
20190621  03:00:00,26762.0,26734.0,26812.0,26707.0,24274
20190621  04:00:00,26778.0,26761.0,26783.0,26761.0,3187
20190621  04:30:00,26765.0,26778.0,26778.0,26753.0,876
20190621  21:30:00,26759.0,26753.0,26784.0,26733.0,22138
20190621  22:00:00,26815.0,26759.0,26832.0,26746.0,27654
20190621  23:00:00,26828.0,26815.0,26922.0,26814.0,35604
20190622  00:00:00,26815.0,26828.0,26837.0,26785.0,16757
20190622  01:00:00,26813.0,26814.0,26823.0,26786.0,9680
20190622  02:00:00,26805.0,26814.0,26825.0,26785.0,10024
20190622  03:00:00,26731.0,26806.0,26837.0,26716.0,20602
20190622  04:00:00,26697.0,26732.0,26754.0,26691.0,5479
20190622  04:30:00,26672.0,26698.0,26702.0,26671.0,1756
20190624  21:30:00,26769.0,26756.0,26815.0,26753.0,21578
20190624  22:00:00,26768.0,26769.0,26812.0,26753.0,23180
20190624  23:00:00,26776.0,26768.0,26795.0,26756.0,16028
20190625  00:00:00,26774.0,26777.0,26787.0,26765.0,9968
20190625  01:00:00,26751.0,26775.0,26778.0,26744.0,8543
20190625  02:00:00,26760.0,26751.0,26763.0,26740.0,8586
20190625  03:00:00,26745.0,26761.0,26774.0,26737.0,15668
20190625  04:00:00,26763.0,26746.0,26764.0,26745.0,1679
20190625  04:30:00,26753.0,26764.0,26766.0,26751.0,433
20190625  21:30:00,26694.0,26767.0,26768.0,26666.0,27478
20190625  22:00:00,26670.0,26693.0,26702.0,26615.0,31895
20190625  23:00:00,26693.0,26671.0,26716.0,26653.0,18896
20190626  00:00:00,26637.0,26692.0,26712.0,26617.0,16054
20190626  01:00:00,26626.0,26638.0,26681.0,26580.0,22458
20190626  02:00:00,26591.0,26626.0,26640.0,26542.0,23643
20190626  03:00:00,26564.0,26592.0,26607.0,26539.0,28004
20190626  04:00:00,26565.0,26563.0,26576.0,26556.0,2758
20190626  04:30:00,26569.0,26563.0,26572.0,26556.0,914
20190626  21:30:00,26623.0,26637.0,26675.0,26589.0,23112
20190626  22:00:00,26629.0,26622.0,26648.0,26581.0,23478
20190626  23:00:00,26633.0,26628.0,26654.0,26594.0,14410
20190627  00:00:00,26650.0,26633.0,26655.0,26611.0,10976
20190627  01:00:00,26603.0,26650.0,26652.0,26577.0,12761
20190627  02:00:00,26595.0,26601.0,26619.0,26562.0,15467
20190627  03:00:00,26555.0,26595.0,26615.0,26546.0,19372
20190627  04:00:00,26550.0,26555.0,26561.0,26543.0,3066
20190627  04:30:00,26521.0,26550.0,26560.0,26519.0,928
20190627  21:30:00,26560.0,26566.0,26584.0,26521.0,21031
20190627  22:00:00,26525.0,26562.0,26565.0,26501.0,21411
20190627  23:00:00,26522.0,26524.0,26543.0,26468.0,19937
20190628  00:00:00,26572.0,26522.0,26581.0,26513.0,11184
20190628  01:00:00,26589.0,26572.0,26612.0,26569.0,8530
20190628  02:00:00,26567.0,26588.0,26602.0,26562.0,7256
20190628  03:00:00,26529.0,26567.0,26581.0,26524.0,16446
20190628  04:00:00,26549.0,26528.0,26557.0,26527.0,2595
20190628  04:30:00,26552.0,26546.0,26571.0,26538.0,1637
20190628  21:30:00,26550.0,26610.0,26636.0,26521.0,19813
20190628  22:00:00,26572.0,26551.0,26587.0,26539.0,18394
20190628  23:00:00,26590.0,26571.0,26601.0,26549.0,12576
20190629  00:00:00,26614.0,26589.0,26646.0,26588.0,14353
20190629  01:00:00,26574.0,26614.0,26615.0,26565.0,10362
20190629  02:00:00,26546.0,26574.0,26587.0,26542.0,9614
20190629  03:00:00,26588.0,26547.0,26639.0,26529.0,27561
20190629  04:00:00,26667.0,26589.0,26672.0,26581.0,8197
20190629  04:30:00,26651.0,26656.0,26666.0,26641.0,1700
20190701  21:30:00,26826.0,26865.0,26889.0,26810.0,24057
20190701  22:00:00,26775.0,26830.0,26854.0,26738.0,27548
20190701  23:00:00,26723.0,26776.0,26789.0,26711.0,19777
20190702  00:00:00,26668.0,26723.0,26731.0,26660.0,15009
20190702  01:00:00,26658.0,26669.0,26689.0,26628.0,18336
20190702  02:00:00,26629.0,26658.0,26661.0,26609.0,13452
20190702  03:00:00,26711.0,26629.0,26719.0,26626.0,23768
20190702  04:00:00,26705.0,26711.0,26713.0,26690.0,3437
20190702  04:30:00,26699.0,26705.0,26711.0,26695.0,1333
20190702  21:30:00,26646.0,26689.0,26697.0,26630.0,20795
20190702  22:00:00,26729.0,26646.0,26741.0,26641.0,25487
20190702  23:00:00,26697.0,26729.0,26738.0,26657.0,19090
20190703  00:00:00,26663.0,26697.0,26703.0,26621.0,15916
20190703  01:00:00,26711.0,26664.0,26720.0,26650.0,10754
20190703  02:00:00,26691.0,26711.0,26725.0,26684.0,9746
20190703  03:00:00,26776.0,26690.0,26778.0,26684.0,18841
20190703  04:00:00,26798.0,26776.0,26802.0,26756.0,3569
20190703  04:30:00,26797.0,26797.0,26805.0,26789.0,784
20190703  21:30:00,26843.0,26832.0,26860.0,26825.0,17109
20190703  22:00:00,26874.0,26842.0,26892.0,26827.0,20395
20190703  23:00:00,26913.0,26874.0,26913.0,26845.0,16835
20190704  00:00:00,26955.0,26912.0,26961.0,26906.0,17445
20190704  01:00:00,26978.0,26954.0,26982.0,26953.0,4104
20190705  21:30:00,26811.0,26868.0,26877.0,26804.0,21319
20190705  22:00:00,26790.0,26811.0,26845.0,26728.0,27953
20190705  23:00:00,26860.0,26790.0,26860.0,26769.0,18968
20190706  00:00:00,26904.0,26859.0,26918.0,26842.0,16406
20190706  01:00:00,26911.0,26903.0,26932.0,26888.0,12024
20190706  02:00:00,26947.0,26910.0,26947.0,26898.0,9965
20190706  03:00:00,26927.0,26947.0,26948.0,26872.0,20720
20190706  04:00:00,26884.0,26927.0,26937.0,26880.0,3657
20190706  04:30:00,26901.0,26883.0,26905.0,26880.0,717
20190708  21:30:00,26768.0,26787.0,26789.0,26742.0,19667
20190708  22:00:00,26780.0,26770.0,26837.0,26768.0,24153
20190708  23:00:00,26783.0,26781.0,26815.0,26769.0,15170
20190709  00:00:00,26790.0,26782.0,26793.0,26762.0,9589
20190709  01:00:00,26780.0,26791.0,26806.0,26769.0,7162
20190709  02:00:00,26777.0,26780.0,26799.0,26751.0,9052
20190709  03:00:00,26805.0,26777.0,26825.0,26769.0,18164
20190709  04:00:00,26792.0,26806.0,26822.0,26790.0,2675
20190709  04:30:00,26793.0,26792.0,26798.0,26780.0,753
20190709  21:30:00,26689.0,26666.0,26729.0,26661.0,21255
20190709  22:00:00,26700.0,26688.0,26734.0,26688.0,18415
20190709  23:00:00,26709.0,26699.0,26725.0,26683.0,13502
20190710  00:00:00,26715.0,26709.0,26737.0,26706.0,8912
20190710  01:00:00,26735.0,26716.0,26737.0,26710.0,6290
20190710  02:00:00,26746.0,26735.0,26748.0,26724.0,7881
20190710  03:00:00,26784.0,26746.0,26807.0,26715.0,17836
20190710  04:00:00,26777.0,26783.0,26785.0,26774.0,2758
20190710  04:30:00,26786.0,26779.0,26794.0,26776.0,806
20190710  21:30:00,26964.0,26877.0,26983.0,26871.0,33081
20190710  22:00:00,26852.0,26965.0,26982.0,26848.0,33061
20190710  23:00:00,26868.0,26852.0,26878.0,26809.0,25559
20190711  00:00:00,26872.0,26869.0,26878.0,26825.0,11459
20190711  01:00:00,26899.0,26873.0,26912.0,26864.0,13529
20190711  02:00:00,26863.0,26900.0,26927.0,26842.0,13858
20190711  03:00:00,26856.0,26862.0,26884.0,26842.0,15995
20190711  04:00:00,26860.0,26857.0,26868.0,26853.0,2173
20190711  04:30:00,26856.0,26861.0,26865.0,26856.0,520
20190711  21:30:00,26986.0,26957.0,27004.0,26910.0,26388
20190711  22:00:00,26982.0,26986.0,27000.0,26940.0,26763
20190711  23:00:00,27059.0,26982.0,27064.0,26973.0,22763
20190712  00:00:00,27055.0,27059.0,27060.0,27033.0,9641
20190712  01:00:00,27003.0,27055.0,27059.0,26975.0,19931
20190712  02:00:00,27025.0,27004.0,27027.0,26979.0,12494
20190712  03:00:00,27078.0,27024.0,27081.0,27019.0,16328
20190712  04:00:00,27077.0,27078.0,27092.0,27068.0,3701
20190712  04:30:00,27082.0,27077.0,27085.0,27073.0,888
20190712  21:30:00,27212.0,27157.0,27227.0,27147.0,20739
20190712  22:00:00,27200.0,27213.0,27242.0,27190.0,20325
20190712  23:00:00,27222.0,27199.0,27232.0,27189.0,13525
20190713  00:00:00,27242.0,27222.0,27251.0,27212.0,9730
20190713  01:00:00,27232.0,27241.0,27243.0,27217.0,5374
20190713  02:00:00,27271.0,27233.0,27277.0,27230.0,9902
20190713  03:00:00,27323.0,27271.0,27330.0,27254.0,16271
20190713  04:00:00,27303.0,27322.0,27329.0,27303.0,3444
20190713  04:30:00,27311.0,27304.0,27328.0,27304.0,1324
20190715  21:30:00,27323.0,27344.0,27348.0,27291.0,20832
20190715  22:00:00,27326.0,27324.0,27352.0,27296.0,18483
20190715  23:00:00,27306.0,27327.0,27338.0,27287.0,11986
20190716  00:00:00,27295.0,27307.0,27312.0,27286.0,7837
20190716  01:00:00,27298.0,27294.0,27312.0,27289.0,6855
20190716  02:00:00,27325.0,27299.0,27329.0,27299.0,7607
20190716  03:00:00,27349.0,27326.0,27350.0,27318.0,11795
20190716  04:00:00,27343.0,27349.0,27355.0,27336.0,2277
20190716  04:30:00,27338.0,27344.0,27349.0,27336.0,755
20190716  21:30:00,27348.0,27349.0,27377.0,27321.0,14916
20190716  22:00:00,27379.0,27348.0,27389.0,27330.0,15068
20190716  23:00:00,27330.0,27380.0,27385.0,27330.0,10545
20190717  00:00:00,27341.0,27330.0,27344.0,27280.0,20437
20190717  01:00:00,27326.0,27342.0,27367.0,27323.0,11385
20190717  02:00:00,27350.0,27327.0,27365.0,27319.0,10434
20190717  03:00:00,27328.0,27350.0,27370.0,27320.0,12860
20190717  04:00:00,27325.0,27329.0,27348.0,27324.0,1946
20190717  04:30:00,27318.0,27328.0,27332.0,27314.0,786
20190717  21:30:00,27323.0,27320.0,27333.0,27282.0,19393
20190717  22:00:00,27264.0,27323.0,27331.0,27226.0,26456
20190717  23:00:00,27291.0,27264.0,27305.0,27254.0,15271
20190718  00:00:00,27280.0,27291.0,27298.0,27263.0,8095
20190718  01:00:00,27289.0,27280.0,27299.0,27269.0,5924
20190718  02:00:00,27262.0,27288.0,27289.0,27247.0,8106
20190718  03:00:00,27211.0,27261.0,27273.0,27208.0,16976
20190718  04:00:00,27237.0,27212.0,27243.0,27208.0,5959
20190718  04:30:00,27184.0,27228.0,27228.0,27184.0,1423
20190718  21:30:00,27198.0,27150.0,27206.0,27121.0,20375
20190718  22:00:00,27160.0,27198.0,27204.0,27146.0,20018
20190718  23:00:00,27078.0,27161.0,27169.0,27057.0,21244
20190719  00:00:00,27109.0,27078.0,27132.0,27073.0,13010
20190719  01:00:00,27120.0,27108.0,27147.0,27102.0,8354
20190719  02:00:00,27233.0,27121.0,27234.0,27118.0,18058
20190719  03:00:00,27210.0,27233.0,27256.0,27163.0,21636
20190719  04:00:00,27197.0,27210.0,27221.0,27196.0,3346
20190719  04:30:00,27294.0,27204.0,27304.0,27204.0,2579
20190719  21:30:00,27288.0,27322.0,27335.0,27262.0,18249
20190719  22:00:00,27275.0,27287.0,27319.0,27242.0,24386
20190719  23:00:00,27258.0,27275.0,27307.0,27232.0,21261
20190720  00:00:00,27308.0,27258.0,27319.0,27257.0,13960
20190720  01:00:00,27292.0,27308.0,27311.0,27269.0,9979
20190720  02:00:00,27237.0,27291.0,27308.0,27211.0,20238
20190720  03:00:00,27153.0,27237.0,27237.0,27140.0,29066
20190720  04:00:00,27134.0,27153.0,27164.0,27126.0,3963
20190720  04:30:00,27080.0,27132.0,27134.0,27071.0,1804
20190722  21:30:00,27202.0,27176.0,27213.0,27131.0,20258
20190722  22:00:00,27103.0,27202.0,27203.0,27078.0,27455
20190722  23:00:00,27139.0,27105.0,27145.0,27096.0,13966
20190723  00:00:00,27155.0,27140.0,27164.0,27113.0,9552
20190723  01:00:00,27160.0,27155.0,27166.0,27138.0,7591
20190723  02:00:00,27154.0,27160.0,27167.0,27136.0,6947
20190723  03:00:00,27164.0,27154.0,27206.0,27138.0,16076
20190723  04:00:00,27179.0,27165.0,27188.0,27153.0,2051
20190723  04:30:00,27169.0,27180.0,27190.0,27169.0,881
20190723  21:30:00,27239.0,27272.0,27290.0,27228.0,16295
20190723  22:00:00,27252.0,27240.0,27265.0,27213.0,15269
20190723  23:00:00,27203.0,27252.0,27263.0,27193.0,12715
20190724  00:00:00,27222.0,27202.0,27228.0,27190.0,8513
20190724  01:00:00,27326.0,27224.0,27339.0,27213.0,18138
20190724  02:00:00,27343.0,27326.0,27354.0,27301.0,12337
20190724  03:00:00,27334.0,27343.0,27358.0,27313.0,15567
20190724  04:00:00,27323.0,27333.0,27336.0,27312.0,2579
20190724  04:30:00,27307.0,27323.0,27331.0,27289.0,2609
20190724  21:30:00,27249.0,27223.0,27277.0,27175.0,20847
20190724  22:00:00,27218.0,27250.0,27280.0,27195.0,24103
20190724  23:00:00,27193.0,27218.0,27224.0,27181.0,15339
20190725  00:00:00,27227.0,27194.0,27233.0,27194.0,12251
20190725  01:00:00,27209.0,27226.0,27231.0,27199.0,6650
20190725  02:00:00,27234.0,27210.0,27236.0,27200.0,9462
20190725  03:00:00,27255.0,27235.0,27258.0,27218.0,13946
20190725  04:00:00,27237.0,27255.0,27256.0,27217.0,3030
20190725  04:30:00,27240.0,27243.0,27259.0,27240.0,1135
20190725  21:30:00,27119.0,27238.0,27245.0,27094.0,30949
20190725  22:00:00,27175.0,27119.0,27198.0,27098.0,26570
20190725  23:00:00,27127.0,27174.0,27198.0,27112.0,16904
